20191017/N4/simulation/qsim/N4.msim.vcd
$comment
	File created using the following command:
		vcd file N4.msim.vcd -direction
$end
$date
	Sun Nov 17 01:13:22 2019
$end
$version
	ModelSim Version 10.1d
$end
$timescale
	1ps
$end
$scope module N4_vlg_vec_tst $end
$var reg 1 ! clk $end
$var reg 1 " reset $end
$var wire 1 # col [2] $end
$var wire 1 $ col [1] $end
$var wire 1 % col [0] $end
$var wire 1 & col_time [5] $end
$var wire 1 ' col_time [4] $end
$var wire 1 ( col_time [3] $end
$var wire 1 ) col_time [2] $end
$var wire 1 * col_time [1] $end
$var wire 1 + col_time [0] $end
$var wire 1 , row [2] $end
$var wire 1 - row [1] $end
$var wire 1 . row [0] $end
$var wire 1 / row_time [5] $end
$var wire 1 0 row_time [4] $end
$var wire 1 1 row_time [3] $end
$var wire 1 2 row_time [2] $end
$var wire 1 3 row_time [1] $end
$var wire 1 4 row_time [0] $end
$var wire 1 5 sampler $end
$scope module i1 $end
$var wire 1 6 gnd $end
$var wire 1 7 vcc $end
$var wire 1 8 unknown $end
$var tri1 1 9 devclrn $end
$var tri1 1 : devpor $end
$var tri1 1 ; devoe $end
$var wire 1 < row[0]~output_o $end
$var wire 1 = row[1]~output_o $end
$var wire 1 > row[2]~output_o $end
$var wire 1 ? col[0]~output_o $end
$var wire 1 @ col[1]~output_o $end
$var wire 1 A col[2]~output_o $end
$var wire 1 B row_time[0]~output_o $end
$var wire 1 C row_time[1]~output_o $end
$var wire 1 D row_time[2]~output_o $end
$var wire 1 E row_time[3]~output_o $end
$var wire 1 F row_time[4]~output_o $end
$var wire 1 G row_time[5]~output_o $end
$var wire 1 H col_time[0]~output_o $end
$var wire 1 I col_time[1]~output_o $end
$var wire 1 J col_time[2]~output_o $end
$var wire 1 K col_time[3]~output_o $end
$var wire 1 L col_time[4]~output_o $end
$var wire 1 M col_time[5]~output_o $end
$var wire 1 N clk~input_o $end
$var wire 1 O clk~inputclkctrl_outclk $end
$var wire 1 P reset~input_o $end
$var wire 1 Q row_time[0]~8_combout $end
$var wire 1 R ~GND~combout $end
$var wire 1 S col_time[0]~8_combout $end
$var wire 1 T row_time[0]~9 $end
$var wire 1 U row_time[1]~11_combout $end
$var wire 1 V row_time[0]~10_combout $end
$var wire 1 W row_time[1]~reg0_q $end
$var wire 1 X row_time[1]~12 $end
$var wire 1 Y row_time[2]~13_combout $end
$var wire 1 Z row_time[2]~reg0_q $end
$var wire 1 [ col_time[0]~7_combout $end
$var wire 1 \ col_time[2]~14 $end
$var wire 1 ] col_time[3]~15_combout $end
$var wire 1 ^ col_time[3]~reg0_q $end
$var wire 1 _ col_time[3]~16 $end
$var wire 1 ` col_time[4]~17_combout $end
$var wire 1 a col_time[4]~reg0_q $end
$var wire 1 b col_time[4]~18 $end
$var wire 1 c col_time[5]~19_combout $end
$var wire 1 d col_time[5]~reg0_q $end
$var wire 1 e col_time[0]~6_combout $end
$var wire 1 f col_time[0]~10_combout $end
$var wire 1 g col_time[0]~reg0_q $end
$var wire 1 h col_time[0]~9 $end
$var wire 1 i col_time[1]~11_combout $end
$var wire 1 j col_time[1]~reg0_q $end
$var wire 1 k col_time[1]~12 $end
$var wire 1 l col_time[2]~13_combout $end
$var wire 1 m col_time[2]~reg0_q $end
$var wire 1 n row_time[0]~6_combout $end
$var wire 1 o row_time[0]~reg0_q $end
$var wire 1 p row_time[2]~14 $end
$var wire 1 q row_time[3]~15_combout $end
$var wire 1 r row_time[3]~reg0_q $end
$var wire 1 s row_time[3]~16 $end
$var wire 1 t row_time[4]~17_combout $end
$var wire 1 u row_time[4]~reg0_q $end
$var wire 1 v row_time[4]~18 $end
$var wire 1 w row_time[5]~19_combout $end
$var wire 1 x row_time[5]~reg0_q $end
$var wire 1 y row_time[0]~7_combout $end
$var wire 1 z state~13_combout $end
$var wire 1 { Equal5~0_combout $end
$var wire 1 | Equal5~1_combout $end
$var wire 1 } state~14_combout $end
$var wire 1 ~ state.S4~q $end
$var wire 1 !! state~20_combout $end
$var wire 1 "! state~21_combout $end
$var wire 1 #! state.S5~q $end
$var wire 1 $! Equal4~0_combout $end
$var wire 1 %! Equal4~1_combout $end
$var wire 1 &! state~15_combout $end
$var wire 1 '! state.S0~q $end
$var wire 1 (! state~16_combout $end
$var wire 1 )! state~17_combout $end
$var wire 1 *! state.S1~q $end
$var wire 1 +! state~18_combout $end
$var wire 1 ,! state~19_combout $end
$var wire 1 -! state.S2~q $end
$var wire 1 .! state~22_combout $end
$var wire 1 /! state.S3~q $end
$var wire 1 0! row~0_combout $end
$var wire 1 1! col~0_combout $end
$upscope $end
$upscope $end
$enddefinitions $end
#0
$dumpvars
0!
0"
1%
0$
0#
0+
0*
0)
0(
0'
0&
0.
0-
1,
04
03
02
01
00
0/
x5
06
17
x8
19
1:
1;
0<
0=
1>
1?
0@
0A
0B
0C
0D
0E
0F
0G
0H
0I
0J
0K
0L
0M
0N
0O
0P
1Q
0R
1S
0T
1U
1V
0W
1X
1Y
0Z
0[
0\
1]
0^
1_
1`
0a
0b
1c
0d
1e
1f
0g
0h
1i
0j
1k
1l
0m
0n
0o
0p
1q
0r
1s
1t
0u
0v
1w
0x
1y
0z
0{
0|
0}
0~
1!!
0"!
0#!
0$!
0%!
0&!
0'!
0(!
0)!
0*!
1+!
0,!
0-!
0.!
0/!
00!
11!
$end
#10000
1!
1N
1O
05
1u
1r
1Z
1W
0y
1v
0t
0s
0q
1p
0Y
0X
0U
1F
1E
1D
1C
10
11
12
13
0w
1t
1q
1Y
#20000
0!
0N
0O
15
#30000
1!
1N
1O
05
#40000
0!
0N
0O
15
#50000
1!
1N
1O
05
#60000
0!
0N
0O
15
#70000
1!
1N
1O
05
#80000
0!
0N
0O
15
#90000
1!
1N
1O
05
#100000
0!
0N
0O
15
#110000
1!
1N
1O
05
#120000
0!
0N
0O
15
#130000
1!
1N
1O
05
#140000
0!
0N
0O
15
#150000
1!
1N
1O
05
#160000
0!
0N
0O
15
#170000
1!
1N
1O
05
#180000
0!
0N
0O
15
#190000
1!
1N
1O
05
#200000
0!
0N
0O
15
#210000
1!
1N
1O
05
#220000
0!
0N
0O
15
#230000
1!
1N
1O
05
#240000
0!
0N
0O
15
#250000
1!
1N
1O
05
#260000
0!
0N
0O
15
#270000
1!
1N
1O
05
#280000
0!
0N
0O
15
#290000
1!
1N
1O
05
#300000
0!
0N
0O
15
#310000
1!
1N
1O
05
#320000
0!
0N
0O
15
#330000
1!
1N
1O
05
#340000
0!
0N
0O
15
#350000
1!
1N
1O
05
#360000
0!
0N
0O
15
#370000
1!
1N
1O
05
#380000
0!
0N
0O
15
#390000
1!
1N
1O
05
#400000
0!
0N
0O
15
#410000
1!
1N
1O
05
#420000
0!
0N
0O
15
#430000
1!
1N
1O
05
#440000
0!
0N
0O
15
#450000
1!
1N
1O
05
#460000
0!
0N
0O
15
#470000
1!
1N
1O
05
#480000
0!
0N
0O
15
#490000
1!
1N
1O
05
#500000
0!
0N
0O
15
#510000
1!
1N
1O
05
#520000
0!
0N
0O
15
#530000
1!
1N
1O
05
#540000
0!
0N
0O
15
#550000
1!
1N
1O
05
#560000
0!
0N
0O
15
#570000
1!
1N
1O
05
#580000
0!
0N
0O
15
#590000
1!
1N
1O
05
#600000
0!
0N
0O
15
#610000
1!
1N
1O
05
#620000
0!
0N
0O
15
#630000
1!
1N
1O
05
#640000
0!
0N
0O
15
#650000
1!
1N
1O
05
#660000
0!
0N
0O
15
#670000
1!
1N
1O
05
#680000
0!
0N
0O
15
#690000
1!
1N
1O
05
#700000
0!
0N
0O
15
#710000
1!
1N
1O
05
#720000
0!
0N
0O
15
#730000
1!
1N
1O
05
#740000
0!
0N
0O
15
#750000
1!
1N
1O
05
#760000
0!
0N
0O
15
#770000
1!
1N
1O
05
#780000
0!
0N
0O
15
#790000
1!
1N
1O
05
#800000
0!
0N
0O
15
#810000
1!
1N
1O
05
#820000
0!
0N
0O
15
#830000
1!
1N
1O
05
#840000
0!
0N
0O
15
#850000
1!
1N
1O
05
#860000
0!
0N
0O
15
#870000
1!
1N
1O
05
#880000
0!
0N
0O
15
#890000
1!
1N
1O
05
#900000
0!
0N
0O
15
#910000
1!
1N
1O
05
#920000
0!
0N
0O
15
#930000
1!
1N
1O
05
#940000
0!
0N
0O
15
#950000
1!
1N
1O
05
#960000
0!
0N
0O
15
#970000
1!
1N
1O
05
#980000
0!
0N
0O
15
#990000
1!
1N
1O
05
