20191017/N3/simulation/qsim/N3.msim.vcd
$comment
	File created using the following command:
		vcd file N3.msim.vcd -direction
$end
$date
	Thu Oct 17 16:32:06 2019
$end
$version
	ModelSim Version 10.1d
$end
$timescale
	1ps
$end
$scope module N3_vlg_vec_tst $end
$var reg 1 ! clk $end
$var reg 1 " reset $end
$var wire 1 # def $end
$var wire 1 $ r [6] $end
$var wire 1 % r [5] $end
$var wire 1 & r [4] $end
$var wire 1 ' r [3] $end
$var wire 1 ( r [2] $end
$var wire 1 ) r [1] $end
$var wire 1 * r [0] $end
$var wire 1 + sampler $end
$scope module i1 $end
$var wire 1 , gnd $end
$var wire 1 - vcc $end
$var wire 1 . unknown $end
$var tri1 1 / devclrn $end
$var tri1 1 0 devpor $end
$var tri1 1 1 devoe $end
$var wire 1 2 clk~input_o $end
$var wire 1 3 clk~inputclkctrl_outclk $end
$var wire 1 4 def~output_o $end
$var wire 1 5 r[0]~output_o $end
$var wire 1 6 r[1]~output_o $end
$var wire 1 7 r[2]~output_o $end
$var wire 1 8 r[3]~output_o $end
$var wire 1 9 r[4]~output_o $end
$var wire 1 : r[5]~output_o $end
$var wire 1 ; r[6]~output_o $end
$var wire 1 < reset~input_o $end
$var wire 1 = r~6_combout $end
$var wire 1 > r[6]~reg0_q $end
$var wire 1 ? r~0_combout $end
$var wire 1 @ r[0]~reg0_q $end
$var wire 1 A r~2_combout $end
$var wire 1 B r[1]~reg0_q $end
$var wire 1 C r~1_combout $end
$var wire 1 D r[2]~reg0_q $end
$var wire 1 E r~3_combout $end
$var wire 1 F r[3]~reg0_q $end
$var wire 1 G r~4_combout $end
$var wire 1 H r[4]~reg0_q $end
$var wire 1 I r~5_combout $end
$var wire 1 J r[5]~reg0_q $end
$var wire 1 K Equal0~0_combout $end
$var wire 1 L Equal0~1_combout $end
$upscope $end
$upscope $end
$enddefinitions $end
#0
$dumpvars
0!
1"
0#
0*
0)
0(
0'
0&
0%
0$
x+
0,
1-
x.
1/
10
11
02
03
04
05
06
07
08
09
0:
0;
1<
0=
0>
0?
0@
0A
0B
0C
0D
0E
0F
0G
0H
0I
0J
0K
0L
$end
#1000
1!
12
13
0+
#2000
0!
02
03
1+
#3000
1!
12
13
0+
#4000
0!
02
03
1+
#5000
1!
12
13
0+
#6000
0!
02
03
1+
#7000
1!
12
13
0+
#8000
0!
02
03
1+
#9000
1!
12
13
0+
#10000
0!
02
03
1+
#11000
1!
12
13
0+
#12000
0!
02
03
1+
#13000
1!
12
13
0+
#14000
0!
02
03
1+
#15000
1!
12
13
0+
#16000
0!
02
03
1+
#17000
1!
12
13
0+
#18000
0!
02
03
1+
#19000
1!
12
13
0+
#20000
0"
0!
0<
02
03
1+
1C
1?
#21000
1!
12
13
0+
1D
1@
1K
17
15
1(
1*
1L
14
1#
#22000
0!
02
03
1+
#23000
1!
12
13
0+
#24000
0!
02
03
1+
#25000
1!
12
13
0+
#26000
0!
02
03
1+
#27000
1!
12
13
0+
#28000
0!
02
03
1+
#29000
1!
12
13
0+
#30000
0!
02
03
1+
#31000
1!
12
13
0+
#32000
0!
02
03
1+
#33000
1!
12
13
0+
#34000
0!
02
03
1+
#35000
1!
12
13
0+
#36000
0!
02
03
1+
#37000
1!
12
13
0+
#38000
0!
02
03
1+
#39000
1!
12
13
0+
#40000
0!
02
03
1+
#41000
1!
12
13
0+
#42000
0!
02
03
1+
#43000
1!
12
13
0+
#44000
0!
02
03
1+
#45000
1!
12
13
0+
#46000
0!
02
03
1+
#47000
1!
12
13
0+
#48000
0!
02
03
1+
#49000
1!
12
13
0+
#50000
0!
02
03
1+
#51000
1!
12
13
0+
#52000
0!
02
03
1+
#53000
1!
12
13
0+
#54000
0!
02
03
1+
#55000
1!
12
13
0+
#56000
0!
02
03
1+
#57000
1!
12
13
0+
#58000
0!
02
03
1+
#59000
1!
12
13
0+
#60000
0!
02
03
1+
#61000
1!
12
13
0+
#62000
0!
02
03
1+
#63000
1!
12
13
0+
#64000
0!
02
03
1+
#65000
1!
12
13
0+
#66000
0!
02
03
1+
#67000
1!
12
13
0+
#68000
0!
02
03
1+
#69000
1!
12
13
0+
#70000
0!
02
03
1+
#71000
1!
12
13
0+
#72000
0!
02
03
1+
#73000
1!
12
13
0+
#74000
0!
02
03
1+
#75000
1!
12
13
0+
#76000
0!
02
03
1+
#77000
1!
12
13
0+
#78000
0!
02
03
1+
#79000
1!
12
13
0+
#80000
1"
0!
1<
02
03
1+
1E
0C
1A
0?
#81000
1!
12
13
0+
1F
0D
1B
0@
0K
1G
0E
1C
1?
0A
18
07
16
05
1'
0(
1)
0*
0L
04
0#
#82000
0!
02
03
1+
#83000
1!
12
13
0+
1H
0F
1D
0B
1@
1I
1K
0G
1E
0C
0?
1A
19
08
17
06
15
1&
0'
1(
0)
1*
#84000
0!
02
03
1+
#85000
1!
12
13
0+
1J
0H
1F
0D
1B
0@
1=
0I
0K
1G
0E
1C
1?
0A
1:
09
18
07
16
05
1%
0&
1'
0(
1)
0*
#86000
0!
02
03
1+
#87000
1!
12
13
0+
0J
1H
0F
1D
0B
1@
1>
0=
1I
1K
0G
1E
0C
1A
0:
19
08
17
06
15
1;
0%
1&
0'
1(
0)
1*
1$
#88000
0!
02
03
1+
#89000
1!
12
13
0+
1J
0H
1F
0D
1B
0>
1=
0I
0K
1G
0E
1C
1:
09
18
07
16
0;
1%
0&
1'
0(
1)
0$
#90000
0!
02
03
1+
#91000
1!
12
13
0+
0J
1H
0F
1D
1>
0=
1I
0G
1E
0?
0:
19
08
17
1;
0%
1&
0'
1(
1$
#92000
0!
02
03
1+
#93000
1!
12
13
0+
1J
0H
1F
0@
0>
1=
0I
1G
0A
1?
1:
09
18
05
0;
1%
0&
1'
0*
0$
#94000
0!
02
03
1+
#95000
1!
12
13
0+
0J
1H
0B
1@
1>
0=
1I
0C
1A
0:
19
06
15
1;
0%
1&
0)
1*
1$
#96000
0!
02
03
1+
#97000
1!
12
13
0+
1J
0D
1B
0>
1=
0E
1C
1:
07
16
0;
1%
0(
1)
0$
#98000
0!
02
03
1+
#99000
1!
12
13
0+
0F
1D
1>
0G
1E
0?
08
17
1;
0'
1(
1$
#100000
0!
02
03
1+
#101000
1!
12
13
0+
0H
1F
0@
0I
1G
0A
09
18
05
0&
1'
0*
#102000
0!
02
03
1+
#103000
1!
12
13
0+
0J
1H
0B
0=
1I
0C
1?
0:
19
06
0%
1&
0)
#104000
0!
02
03
1+
#105000
1!
12
13
0+
1J
0D
1@
0>
1=
0E
1A
0?
1:
07
15
0;
1%
0(
1*
0$
#106000
0!
02
03
1+
#107000
1!
12
13
0+
0F
1B
0@
1>
0G
1C
0A
08
16
05
1;
0'
1)
0*
1$
#108000
0!
02
03
1+
#109000
1!
12
13
0+
0H
1D
0B
0I
1E
0C
1?
09
17
06
0&
1(
0)
#110000
0!
02
03
1+
#111000
1!
12
13
0+
0J
1F
0D
1@
0=
1G
0E
1A
0:
18
07
15
0%
1'
0(
1*
#112000
0!
02
03
1+
#113000
1!
12
13
0+
1H
0F
1B
0>
1I
0G
1C
19
08
16
0;
1&
0'
1)
0$
#114000
0!
02
03
1+
#115000
1!
12
13
0+
1J
0H
1D
1=
0I
1E
1:
09
17
1%
0&
1(
#116000
0!
02
03
1+
#117000
1!
12
13
0+
0J
1F
1>
0=
1G
0?
0:
18
1;
0%
1'
1$
#118000
0!
02
03
1+
#119000
1!
12
13
0+
1H
0@
0>
1I
0A
1?
19
05
0;
1&
0*
0$
#120000
0!
02
03
1+
#121000
1!
12
13
0+
1J
0B
1@
1=
0C
0?
1A
1:
06
15
1%
0)
1*
#122000
0!
02
03
1+
#123000
1!
12
13
0+
0D
1B
0@
1>
0E
1C
0A
07
16
05
1;
0(
1)
0*
1$
#124000
0!
02
03
1+
#125000
1!
12
13
0+
0F
1D
0B
0G
1E
0C
1?
08
17
06
0'
1(
0)
#126000
0!
02
03
1+
#127000
1!
12
13
0+
0H
1F
0D
1@
0I
1G
0E
1A
09
18
07
15
0&
1'
0(
1*
#128000
0!
02
03
1+
#129000
1!
12
13
0+
0J
1H
0F
1B
0=
1I
0G
1C
0?
0:
19
08
16
0%
1&
0'
1)
#130000
0!
02
03
1+
#131000
1!
12
13
0+
1J
0H
1D
0@
0>
1=
0I
1E
0A
1?
1:
09
17
05
0;
1%
0&
1(
0*
0$
#132000
0!
02
03
1+
#133000
1!
12
13
0+
0J
1F
0B
1@
1>
0=
1G
0C
1A
0:
18
06
15
1;
0%
1'
0)
1*
1$
#134000
0!
02
03
1+
#135000
1!
12
13
0+
1H
0D
1B
0>
1I
0E
1C
19
07
16
0;
1&
0(
1)
0$
#136000
0!
02
03
1+
#137000
1!
12
13
0+
1J
0F
1D
1=
0G
1E
1:
08
17
1%
0'
1(
#138000
0!
02
03
1+
#139000
1!
12
13
0+
0H
1F
1>
0I
1G
0?
09
18
1;
0&
1'
1$
#140000
0!
02
03
1+
#141000
1!
12
13
0+
0J
1H
0@
0=
1I
0A
0:
19
05
0%
1&
0*
#142000
0!
02
03
1+
#143000
1!
12
13
0+
1J
0B
0>
1=
0C
1:
06
0;
1%
0)
0$
#144000
0!
02
03
1+
#145000
1!
12
13
0+
0D
1>
0E
1?
07
1;
0(
1$
#146000
0!
02
03
1+
#147000
1!
12
13
0+
0F
1@
0G
1A
08
15
0'
1*
#148000
0!
02
03
1+
#149000
1!
12
13
0+
0H
1B
0I
1C
0?
09
16
0&
1)
#150000
0!
02
03
1+
#151000
1!
12
13
0+
0J
1D
0@
0=
1E
0A
0:
17
05
0%
1(
0*
#152000
0!
02
03
1+
#153000
1!
12
13
0+
1F
0B
0>
1G
0C
18
06
0;
1'
0)
0$
#154000
0!
02
03
1+
#155000
1!
12
13
0+
1H
0D
1I
0E
19
07
1&
0(
#156000
0!
02
03
1+
#157000
1!
12
13
0+
1J
0F
1=
0G
1:
08
1%
0'
#158000
0!
02
03
1+
#159000
1!
12
13
0+
0H
1>
0I
1?
09
1;
0&
1$
#160000
0!
02
03
1+
#161000
1!
12
13
0+
0J
1@
0=
1A
0:
15
0%
1*
#162000
0!
02
03
1+
#163000
1!
12
13
0+
1B
0>
1C
16
0;
1)
0$
#164000
0!
02
03
1+
#165000
1!
12
13
0+
1D
1E
17
1(
#166000
0!
02
03
1+
#167000
1!
12
13
0+
1F
1G
18
1'
#168000
0!
02
03
1+
#169000
1!
12
13
0+
1H
1I
19
1&
#170000
0!
02
03
1+
#171000
1!
12
13
0+
1J
1=
1:
1%
#172000
0!
02
03
1+
#173000
1!
12
13
0+
1>
0?
1;
1$
#174000
0!
02
03
1+
#175000
1!
12
13
0+
0@
0A
05
0*
#176000
0!
02
03
1+
#177000
1!
12
13
0+
0B
0C
1?
06
0)
#178000
0!
02
03
1+
#179000
1!
12
13
0+
0D
1@
0E
1A
07
15
0(
1*
#180000
0!
02
03
1+
#181000
1!
12
13
0+
0F
1B
0G
1C
0?
08
16
0'
1)
#182000
0!
02
03
1+
#183000
1!
12
13
0+
0H
1D
0@
0I
1E
0A
09
17
05
0&
1(
0*
#184000
0!
02
03
1+
#185000
1!
12
13
0+
0J
1F
0B
0=
1G
0C
1?
0:
18
06
0%
1'
0)
#186000
0!
02
03
1+
#187000
1!
12
13
0+
1H
0D
1@
0>
1I
0E
1A
0?
19
07
15
0;
1&
0(
1*
0$
#188000
0!
02
03
1+
#189000
1!
12
13
0+
1J
0F
1B
0@
1=
0G
1C
1?
0A
1:
08
16
05
1%
0'
1)
0*
#190000
0!
02
03
1+
#191000
1!
12
13
0+
0H
1D
0B
1@
1>
0I
1K
1E
0C
1A
09
17
06
15
1;
0&
1(
0)
1*
1$
#192000
0!
02
03
1+
#193000
1!
12
13
0+
0J
1F
0D
1B
0=
0K
1G
0E
1C
0?
0:
18
07
16
0%
1'
0(
1)
#194000
0!
02
03
1+
#195000
1!
12
13
0+
1H
0F
1D
0@
0>
1I
0G
1E
0A
1?
19
08
17
05
0;
1&
0'
1(
0*
0$
#196000
0!
02
03
1+
#197000
1!
12
13
0+
1J
0H
1F
0B
1@
1=
0I
1G
0C
0?
1A
1:
09
18
06
15
1%
0&
1'
0)
1*
#198000
0!
02
03
1+
#199000
1!
12
13
0+
0J
1H
0D
1B
0@
1>
0=
1I
0E
1C
0A
0:
19
07
16
05
1;
0%
1&
0(
1)
0*
1$
#200000
0!
02
03
1+
#201000
1!
12
13
0+
1J
0F
1D
0B
0>
1=
0G
1E
0C
1:
08
17
06
0;
1%
0'
1(
0)
0$
#202000
0!
02
03
1+
#203000
1!
12
13
0+
0H
1F
0D
1>
0I
1G
0E
1?
09
18
07
1;
0&
1'
0(
1$
#204000
0!
02
03
1+
#205000
1!
12
13
0+
0J
1H
0F
1@
0=
1I
0G
1A
0:
19
08
15
0%
1&
0'
1*
#206000
0!
02
03
1+
#207000
1!
12
13
0+
1J
0H
1B
0>
1=
0I
1C
1:
09
16
0;
1%
0&
1)
0$
#208000
0!
02
03
1+
#209000
1!
12
13
0+
0J
1D
1>
0=
1E
0?
0:
17
1;
0%
1(
1$
#210000
0!
02
03
1+
#211000
1!
12
13
0+
1F
0@
0>
1G
0A
1?
18
05
0;
1'
0*
0$
#212000
0!
02
03
1+
#213000
1!
12
13
0+
1H
0B
1@
1I
0C
0?
1A
19
06
15
1&
0)
1*
#214000
0!
02
03
1+
#215000
1!
12
13
0+
1J
0D
1B
0@
1=
0E
1C
1?
0A
1:
07
16
05
1%
0(
1)
0*
#216000
0!
02
03
1+
#217000
1!
12
13
0+
0F
1D
0B
1@
1>
1K
0G
1E
0C
1A
08
17
06
15
1;
0'
1(
0)
1*
1$
#218000
0!
02
03
1+
#219000
1!
12
13
0+
0H
1F
0D
1B
0I
0K
1G
0E
1C
0?
09
18
07
16
0&
1'
0(
1)
#220000
0!
02
03
1+
#221000
1!
12
13
0+
0J
1H
0F
1D
0@
0=
1I
0G
1E
0A
0:
19
08
17
05
0%
1&
0'
1(
0*
#222000
0!
02
03
1+
#223000
1!
12
13
0+
1J
0H
1F
0B
0>
1=
0I
1G
0C
1:
09
18
06
0;
1%
0&
1'
0)
0$
#224000
0!
02
03
1+
#225000
1!
12
13
0+
0J
1H
0D
1>
0=
1I
0E
1?
0:
19
07
1;
0%
1&
0(
1$
#226000
0!
02
03
1+
#227000
1!
12
13
0+
1J
0F
1@
0>
1=
0G
1A
0?
1:
08
15
0;
1%
0'
1*
0$
#228000
0!
02
03
1+
#229000
1!
12
13
0+
0H
1B
0@
1>
0I
1C
0A
09
16
05
1;
0&
1)
0*
1$
#230000
0!
02
03
1+
#231000
1!
12
13
0+
0J
1D
0B
0=
1E
0C
1?
0:
17
06
0%
1(
0)
#232000
0!
02
03
1+
#233000
1!
12
13
0+
1F
0D
1@
0>
1G
0E
1A
0?
18
07
15
0;
1'
0(
1*
0$
#234000
0!
02
03
1+
#235000
1!
12
13
0+
1H
0F
1B
0@
1I
0G
1C
1?
0A
19
08
16
05
1&
0'
1)
0*
#236000
0!
02
03
1+
#237000
1!
12
13
0+
1J
0H
1D
0B
1@
1=
0I
1K
1E
0C
0?
1A
1:
09
17
06
15
1%
0&
1(
0)
1*
#238000
0!
02
03
1+
#239000
1!
12
13
0+
0J
1F
0D
1B
0@
1>
0=
0K
1G
0E
1C
0A
0:
18
07
16
05
1;
0%
1'
0(
1)
0*
1$
#240000
0!
02
03
1+
#241000
1!
12
13
0+
1H
0F
1D
0B
0>
1I
0G
1E
0C
19
08
17
06
0;
1&
0'
1(
0)
0$
#242000
0!
02
03
1+
#243000
1!
12
13
0+
1J
0H
1F
0D
1=
0I
1G
0E
1:
09
18
07
1%
0&
1'
0(
#244000
0!
02
03
1+
#245000
1!
12
13
0+
0J
1H
0F
1>
0=
1I
0G
1?
0:
19
08
1;
0%
1&
0'
1$
#246000
0!
02
03
1+
#247000
1!
12
13
0+
1J
0H
1@
0>
1=
0I
1A
0?
1:
09
15
0;
1%
0&
1*
0$
#248000
0!
02
03
1+
#249000
1!
12
13
0+
0J
1B
0@
1>
0=
1C
0A
0:
16
05
1;
0%
1)
0*
1$
#250000
0!
02
03
1+
#251000
1!
12
13
0+
1D
0B
0>
1E
0C
17
06
0;
1(
0)
0$
#252000
0!
02
03
1+
#253000
1!
12
13
0+
1F
0D
1G
0E
18
07
1'
0(
#254000
0!
02
03
1+
#255000
1!
12
13
0+
1H
0F
1I
0G
19
08
1&
0'
#256000
0!
02
03
1+
#257000
1!
12
13
0+
1J
0H
1=
0I
1:
09
1%
0&
#258000
0!
02
03
1+
#259000
1!
12
13
0+
0J
1>
0=
1?
0:
1;
0%
1$
#260000
0!
02
03
1+
#261000
1!
12
13
0+
1@
0>
1A
0?
15
0;
1*
0$
#262000
0!
02
03
1+
#263000
1!
12
13
0+
1B
0@
1C
1?
0A
16
05
1)
0*
#264000
0!
02
03
1+
#265000
1!
12
13
0+
1D
0B
1@
1K
1E
0C
0?
1A
17
06
15
1(
0)
1*
1L
14
1#
#266000
0!
02
03
1+
#267000
1!
12
13
0+
1F
0D
1B
0@
0K
1G
0E
1C
1?
0A
18
07
16
05
1'
0(
1)
0*
0L
04
0#
#268000
0!
02
03
1+
#269000
1!
12
13
0+
1H
0F
1D
0B
1@
1I
1K
0G
1E
0C
0?
1A
19
08
17
06
15
1&
0'
1(
0)
1*
#270000
0!
02
03
1+
#271000
1!
12
13
0+
1J
0H
1F
0D
1B
0@
1=
0I
0K
1G
0E
1C
1?
0A
1:
09
18
07
16
05
1%
0&
1'
0(
1)
0*
#272000
0!
02
03
1+
#273000
1!
12
13
0+
0J
1H
0F
1D
0B
1@
1>
0=
1I
1K
0G
1E
0C
1A
0:
19
08
17
06
15
1;
0%
1&
0'
1(
0)
1*
1$
#274000
0!
02
03
1+
#275000
1!
12
13
0+
1J
0H
1F
0D
1B
0>
1=
0I
0K
1G
0E
1C
1:
09
18
07
16
0;
1%
0&
1'
0(
1)
0$
#276000
0!
02
03
1+
#277000
1!
12
13
0+
0J
1H
0F
1D
1>
0=
1I
0G
1E
0?
0:
19
08
17
1;
0%
1&
0'
1(
1$
#278000
0!
02
03
1+
#279000
1!
12
13
0+
1J
0H
1F
0@
0>
1=
0I
1G
0A
1?
1:
09
18
05
0;
1%
0&
1'
0*
0$
#280000
0!
02
03
1+
#281000
1!
12
13
0+
0J
1H
0B
1@
1>
0=
1I
0C
1A
0:
19
06
15
1;
0%
1&
0)
1*
1$
#282000
0!
02
03
1+
#283000
1!
12
13
0+
1J
0D
1B
0>
1=
0E
1C
1:
07
16
0;
1%
0(
1)
0$
#284000
0!
02
03
1+
#285000
1!
12
13
0+
0F
1D
1>
0G
1E
0?
08
17
1;
0'
1(
1$
#286000
0!
02
03
1+
#287000
1!
12
13
0+
0H
1F
0@
0I
1G
0A
09
18
05
0&
1'
0*
#288000
0!
02
03
1+
#289000
1!
12
13
0+
0J
1H
0B
0=
1I
0C
1?
0:
19
06
0%
1&
0)
#290000
0!
02
03
1+
#291000
1!
12
13
0+
1J
0D
1@
0>
1=
0E
1A
0?
1:
07
15
0;
1%
0(
1*
0$
#292000
0!
02
03
1+
#293000
1!
12
13
0+
0F
1B
0@
1>
0G
1C
0A
08
16
05
1;
0'
1)
0*
1$
#294000
0!
02
03
1+
#295000
1!
12
13
0+
0H
1D
0B
0I
1E
0C
1?
09
17
06
0&
1(
0)
#296000
0!
02
03
1+
#297000
1!
12
13
0+
0J
1F
0D
1@
0=
1G
0E
1A
0:
18
07
15
0%
1'
0(
1*
#298000
0!
02
03
1+
#299000
1!
12
13
0+
1H
0F
1B
0>
1I
0G
1C
19
08
16
0;
1&
0'
1)
0$
#300000
0!
02
03
1+
#301000
1!
12
13
0+
1J
0H
1D
1=
0I
1E
1:
09
17
1%
0&
1(
#302000
0!
02
03
1+
#303000
1!
12
13
0+
0J
1F
1>
0=
1G
0?
0:
18
1;
0%
1'
1$
#304000
0!
02
03
1+
#305000
1!
12
13
0+
1H
0@
0>
1I
0A
1?
19
05
0;
1&
0*
0$
#306000
0!
02
03
1+
#307000
1!
12
13
0+
1J
0B
1@
1=
0C
0?
1A
1:
06
15
1%
0)
1*
#308000
0!
02
03
1+
#309000
1!
12
13
0+
0D
1B
0@
1>
0E
1C
0A
07
16
05
1;
0(
1)
0*
1$
#310000
0!
02
03
1+
#311000
1!
12
13
0+
0F
1D
0B
0G
1E
0C
1?
08
17
06
0'
1(
0)
#312000
0!
02
03
1+
#313000
1!
12
13
0+
0H
1F
0D
1@
0I
1G
0E
1A
09
18
07
15
0&
1'
0(
1*
#314000
0!
02
03
1+
#315000
1!
12
13
0+
0J
1H
0F
1B
0=
1I
0G
1C
0?
0:
19
08
16
0%
1&
0'
1)
#316000
0!
02
03
1+
#317000
1!
12
13
0+
1J
0H
1D
0@
0>
1=
0I
1E
0A
1?
1:
09
17
05
0;
1%
0&
1(
0*
0$
#318000
0!
02
03
1+
#319000
1!
12
13
0+
0J
1F
0B
1@
1>
0=
1G
0C
1A
0:
18
06
15
1;
0%
1'
0)
1*
1$
#320000
0!
02
03
1+
#321000
1!
12
13
0+
1H
0D
1B
0>
1I
0E
1C
19
07
16
0;
1&
0(
1)
0$
#322000
0!
02
03
1+
#323000
1!
12
13
0+
1J
0F
1D
1=
0G
1E
1:
08
17
1%
0'
1(
#324000
0!
02
03
1+
#325000
1!
12
13
0+
0H
1F
1>
0I
1G
0?
09
18
1;
0&
1'
1$
#326000
0!
02
03
1+
#327000
1!
12
13
0+
0J
1H
0@
0=
1I
0A
0:
19
05
0%
1&
0*
#328000
0!
02
03
1+
#329000
1!
12
13
0+
1J
0B
0>
1=
0C
1:
06
0;
1%
0)
0$
#330000
0!
02
03
1+
#331000
1!
12
13
0+
0D
1>
0E
1?
07
1;
0(
1$
#332000
0!
02
03
1+
#333000
1!
12
13
0+
0F
1@
0G
1A
08
15
0'
1*
#334000
0!
02
03
1+
#335000
1!
12
13
0+
0H
1B
0I
1C
0?
09
16
0&
1)
#336000
0!
02
03
1+
#337000
1!
12
13
0+
0J
1D
0@
0=
1E
0A
0:
17
05
0%
1(
0*
#338000
0!
02
03
1+
#339000
1!
12
13
0+
1F
0B
0>
1G
0C
18
06
0;
1'
0)
0$
#340000
0!
02
03
1+
#341000
1!
12
13
0+
1H
0D
1I
0E
19
07
1&
0(
#342000
0!
02
03
1+
#343000
1!
12
13
0+
1J
0F
1=
0G
1:
08
1%
0'
#344000
0!
02
03
1+
#345000
1!
12
13
0+
0H
1>
0I
1?
09
1;
0&
1$
#346000
0!
02
03
1+
#347000
1!
12
13
0+
0J
1@
0=
1A
0:
15
0%
1*
#348000
0!
02
03
1+
#349000
1!
12
13
0+
1B
0>
1C
16
0;
1)
0$
#350000
0!
02
03
1+
#351000
1!
12
13
0+
1D
1E
17
1(
#352000
0!
02
03
1+
#353000
1!
12
13
0+
1F
1G
18
1'
#354000
0!
02
03
1+
#355000
1!
12
13
0+
1H
1I
19
1&
#356000
0!
02
03
1+
#357000
1!
12
13
0+
1J
1=
1:
1%
#358000
0!
02
03
1+
#359000
1!
12
13
0+
1>
0?
1;
1$
#360000
0!
02
03
1+
#361000
1!
12
13
0+
0@
0A
05
0*
#362000
0!
02
03
1+
#363000
1!
12
13
0+
0B
0C
1?
06
0)
#364000
0!
02
03
1+
#365000
1!
12
13
0+
0D
1@
0E
1A
07
15
0(
1*
#366000
0!
02
03
1+
#367000
1!
12
13
0+
0F
1B
0G
1C
0?
08
16
0'
1)
#368000
0!
02
03
1+
#369000
1!
12
13
0+
0H
1D
0@
0I
1E
0A
09
17
05
0&
1(
0*
#370000
0!
02
03
1+
#371000
1!
12
13
0+
0J
1F
0B
0=
1G
0C
1?
0:
18
06
0%
1'
0)
#372000
0!
02
03
1+
#373000
1!
12
13
0+
1H
0D
1@
0>
1I
0E
1A
0?
19
07
15
0;
1&
0(
1*
0$
#374000
0!
02
03
1+
#375000
1!
12
13
0+
1J
0F
1B
0@
1=
0G
1C
1?
0A
1:
08
16
05
1%
0'
1)
0*
#376000
0!
02
03
1+
#377000
1!
12
13
0+
0H
1D
0B
1@
1>
0I
1K
1E
0C
1A
09
17
06
15
1;
0&
1(
0)
1*
1$
#378000
0!
02
03
1+
#379000
1!
12
13
0+
0J
1F
0D
1B
0=
0K
1G
0E
1C
0?
0:
18
07
16
0%
1'
0(
1)
#380000
0!
02
03
1+
#381000
1!
12
13
0+
1H
0F
1D
0@
0>
1I
0G
1E
0A
1?
19
08
17
05
0;
1&
0'
1(
0*
0$
#382000
0!
02
03
1+
#383000
1!
12
13
0+
1J
0H
1F
0B
1@
1=
0I
1G
0C
0?
1A
1:
09
18
06
15
1%
0&
1'
0)
1*
#384000
0!
02
03
1+
#385000
1!
12
13
0+
0J
1H
0D
1B
0@
1>
0=
1I
0E
1C
0A
0:
19
07
16
05
1;
0%
1&
0(
1)
0*
1$
#386000
0!
02
03
1+
#387000
1!
12
13
0+
1J
0F
1D
0B
0>
1=
0G
1E
0C
1:
08
17
06
0;
1%
0'
1(
0)
0$
#388000
0!
02
03
1+
#389000
1!
12
13
0+
0H
1F
0D
1>
0I
1G
0E
1?
09
18
07
1;
0&
1'
0(
1$
#390000
0!
02
03
1+
#391000
1!
12
13
0+
0J
1H
0F
1@
0=
1I
0G
1A
0:
19
08
15
0%
1&
0'
1*
#392000
0!
02
03
1+
#393000
1!
12
13
0+
1J
0H
1B
0>
1=
0I
1C
1:
09
16
0;
1%
0&
1)
0$
#394000
0!
02
03
1+
#395000
1!
12
13
0+
0J
1D
1>
0=
1E
0?
0:
17
1;
0%
1(
1$
#396000
0!
02
03
1+
#397000
1!
12
13
0+
1F
0@
0>
1G
0A
1?
18
05
0;
1'
0*
0$
#398000
0!
02
03
1+
#399000
1!
12
13
0+
1H
0B
1@
1I
0C
0?
1A
19
06
15
1&
0)
1*
#400000
0!
02
03
1+
#401000
1!
12
13
0+
1J
0D
1B
0@
1=
0E
1C
1?
0A
1:
07
16
05
1%
0(
1)
0*
#402000
0!
02
03
1+
#403000
1!
12
13
0+
0F
1D
0B
1@
1>
1K
0G
1E
0C
1A
08
17
06
15
1;
0'
1(
0)
1*
1$
#404000
0!
02
03
1+
#405000
1!
12
13
0+
0H
1F
0D
1B
0I
0K
1G
0E
1C
0?
09
18
07
16
0&
1'
0(
1)
#406000
0!
02
03
1+
#407000
1!
12
13
0+
0J
1H
0F
1D
0@
0=
1I
0G
1E
0A
0:
19
08
17
05
0%
1&
0'
1(
0*
#408000
0!
02
03
1+
#409000
1!
12
13
0+
1J
0H
1F
0B
0>
1=
0I
1G
0C
1:
09
18
06
0;
1%
0&
1'
0)
0$
#410000
0!
02
03
1+
#411000
1!
12
13
0+
0J
1H
0D
1>
0=
1I
0E
1?
0:
19
07
1;
0%
1&
0(
1$
#412000
0!
02
03
1+
#413000
1!
12
13
0+
1J
0F
1@
0>
1=
0G
1A
0?
1:
08
15
0;
1%
0'
1*
0$
#414000
0!
02
03
1+
#415000
1!
12
13
0+
0H
1B
0@
1>
0I
1C
0A
09
16
05
1;
0&
1)
0*
1$
#416000
0!
02
03
1+
#417000
1!
12
13
0+
0J
1D
0B
0=
1E
0C
1?
0:
17
06
0%
1(
0)
#418000
0!
02
03
1+
#419000
1!
12
13
0+
1F
0D
1@
0>
1G
0E
1A
0?
18
07
15
0;
1'
0(
1*
0$
#420000
0!
02
03
1+
#421000
1!
12
13
0+
1H
0F
1B
0@
1I
0G
1C
1?
0A
19
08
16
05
1&
0'
1)
0*
#422000
0!
02
03
1+
#423000
1!
12
13
0+
1J
0H
1D
0B
1@
1=
0I
1K
1E
0C
0?
1A
1:
09
17
06
15
1%
0&
1(
0)
1*
#424000
0!
02
03
1+
#425000
1!
12
13
0+
0J
1F
0D
1B
0@
1>
0=
0K
1G
0E
1C
0A
0:
18
07
16
05
1;
0%
1'
0(
1)
0*
1$
#426000
0!
02
03
1+
#427000
1!
12
13
0+
1H
0F
1D
0B
0>
1I
0G
1E
0C
19
08
17
06
0;
1&
0'
1(
0)
0$
#428000
0!
02
03
1+
#429000
1!
12
13
0+
1J
0H
1F
0D
1=
0I
1G
0E
1:
09
18
07
1%
0&
1'
0(
#430000
0!
02
03
1+
#431000
1!
12
13
0+
0J
1H
0F
1>
0=
1I
0G
1?
0:
19
08
1;
0%
1&
0'
1$
#432000
0!
02
03
1+
#433000
1!
12
13
0+
1J
0H
1@
0>
1=
0I
1A
0?
1:
09
15
0;
1%
0&
1*
0$
#434000
0!
02
03
1+
#435000
1!
12
13
0+
0J
1B
0@
1>
0=
1C
0A
0:
16
05
1;
0%
1)
0*
1$
#436000
0!
02
03
1+
#437000
1!
12
13
0+
1D
0B
0>
1E
0C
17
06
0;
1(
0)
0$
#438000
0!
02
03
1+
#439000
1!
12
13
0+
1F
0D
1G
0E
18
07
1'
0(
#440000
0!
02
03
1+
#441000
1!
12
13
0+
1H
0F
1I
0G
19
08
1&
0'
#442000
0!
02
03
1+
#443000
1!
12
13
0+
1J
0H
1=
0I
1:
09
1%
0&
#444000
0!
02
03
1+
#445000
1!
12
13
0+
0J
1>
0=
1?
0:
1;
0%
1$
#446000
0!
02
03
1+
#447000
1!
12
13
0+
1@
0>
1A
0?
15
0;
1*
0$
#448000
0!
02
03
1+
#449000
1!
12
13
0+
1B
0@
1C
1?
0A
16
05
1)
0*
#450000
0!
02
03
1+
#451000
1!
12
13
0+
1D
0B
1@
1K
1E
0C
0?
1A
17
06
15
1(
0)
1*
1L
14
1#
#452000
0!
02
03
1+
#453000
1!
12
13
0+
1F
0D
1B
0@
0K
1G
0E
1C
1?
0A
18
07
16
05
1'
0(
1)
0*
0L
04
0#
#454000
0!
02
03
1+
#455000
1!
12
13
0+
1H
0F
1D
0B
1@
1I
1K
0G
1E
0C
0?
1A
19
08
17
06
15
1&
0'
1(
0)
1*
