20191017/N1/simulation/qsim/N1.msim.vcd
$comment
	File created using the following command:
		vcd file N1.msim.vcd -direction
$end
$date
	Wed Nov 06 22:33:46 2019
$end
$version
	ModelSim Version 10.1d
$end
$timescale
	1ps
$end
$scope module N1_vlg_vec_tst $end
$var reg 1 ! clk $end
$var reg 1 " in $end
$var reg 1 # reset $end
$var wire 1 $ out $end
$var wire 1 % state [2] $end
$var wire 1 & state [1] $end
$var wire 1 ' state [0] $end
$var wire 1 ( sampler $end
$scope module i1 $end
$var wire 1 ) gnd $end
$var wire 1 * vcc $end
$var wire 1 + unknown $end
$var tri1 1 , devclrn $end
$var tri1 1 - devpor $end
$var tri1 1 . devoe $end
$var wire 1 / out~output_o $end
$var wire 1 0 state[0]~output_o $end
$var wire 1 1 state[1]~output_o $end
$var wire 1 2 state[2]~output_o $end
$var wire 1 3 clk~input_o $end
$var wire 1 4 clk~inputclkctrl_outclk $end
$var wire 1 5 in~input_o $end
$var wire 1 6 reset~input_o $end
$var wire 1 7 state~2_combout $end
$var wire 1 8 state~3_combout $end
$var wire 1 9 state[1]~reg0_q $end
$var wire 1 : Mux0~0_combout $end
$var wire 1 ; state~4_combout $end
$var wire 1 < state[2]~reg0_q $end
$var wire 1 = Mux3~0_combout $end
$var wire 1 > out~reg0_q $end
$var wire 1 ? state~0_combout $end
$var wire 1 @ state~1_combout $end
$var wire 1 A state[0]~reg0_q $end
$upscope $end
$upscope $end
$enddefinitions $end
#0
$dumpvars
0!
0"
1#
0$
0'
0&
0%
x(
0)
1*
x+
1,
1-
1.
0/
00
01
02
03
04
05
16
07
08
09
0:
0;
0<
0=
0>
0?
0@
0A
$end
#10000
1!
13
14
0(
#20000
1"
0#
0!
15
06
03
04
1(
1?
1=
17
1@
18
#30000
1!
13
14
0(
1A
1>
19
0?
1:
0@
10
1/
11
1'
1$
1&
1@
1;
#40000
0!
03
04
1(
#50000
1!
13
14
0(
1<
1?
0=
0:
07
12
1%
0;
08
#60000
0"
0!
05
03
04
1(
0?
1:
17
1;
18
#70000
1!
13
14
0(
0>
0/
0$
#80000
0!
03
04
1(
#90000
1!
13
14
0(
#100000
0!
03
04
1(
#110000
1!
13
14
0(
#120000
0!
03
04
1(
#130000
1!
13
14
0(
#140000
0!
03
04
1(
#150000
1!
13
14
0(
#160000
1"
0!
15
03
04
1(
1?
0:
07
0;
08
#170000
1!
13
14
0(
0<
09
0?
1=
1:
02
01
0%
0&
0@
1;
#180000
0"
0!
05
03
04
1(
0:
17
0;
18
#190000
1!
13
14
0(
0A
1>
19
1:
07
1@
00
1/
11
0'
1$
1&
1;
08
#200000
0!
03
04
1(
#210000
1!
13
14
0(
1A
1<
09
17
10
12
01
1'
1%
0&
18
#220000
1"
0!
15
03
04
1(
1?
0@
#230000
1!
13
14
0(
0A
19
0?
1@
00
11
0'
1&
#240000
0"
0!
05
03
04
1(
0=
07
08
#250000
1!
13
14
0(
1A
0>
09
1=
17
10
0/
01
1'
0$
0&
18
#260000
1"
0!
15
03
04
1(
1?
0@
#270000
1!
13
14
0(
0A
1>
19
0?
1@
00
1/
11
0'
1$
1&
#280000
0"
0!
05
03
04
1(
0=
07
08
#290000
1!
13
14
0(
1A
0>
09
1=
17
10
0/
01
1'
0$
0&
18
#300000
0!
03
04
1(
#310000
1!
13
14
0(
1>
19
0=
1/
11
1$
1&
#320000
0!
03
04
1(
#330000
1!
13
14
0(
0>
0/
0$
#340000
1"
0!
15
03
04
1(
1?
0:
07
0;
08
#350000
1!
13
14
0(
0<
09
0?
1=
1:
02
01
0%
0&
0@
1;
#360000
0!
03
04
1(
#370000
1!
13
14
0(
0A
1>
1<
0=
0:
1@
00
1/
12
0'
1$
1%
0;
#380000
0!
03
04
1(
#390000
1!
13
14
0(
1A
0>
0<
1=
1:
0@
10
0/
02
1'
0$
0%
1;
#400000
0"
0!
05
03
04
1(
0:
17
0;
18
#410000
1!
13
14
0(
0A
1>
19
1:
07
1@
00
1/
11
0'
1$
1&
1;
08
#420000
0!
03
04
1(
#430000
1!
13
14
0(
1A
1<
09
17
10
12
01
1'
1%
0&
18
#440000
1"
0!
15
03
04
1(
1?
0@
#450000
1!
13
14
0(
0A
19
0?
1@
00
11
0'
1&
#460000
0!
03
04
1(
#470000
1!
13
14
0(
1A
1?
0=
0:
07
10
1'
0;
08
#480000
0"
0!
05
03
04
1(
0?
1:
17
1;
18
#490000
1!
13
14
0(
0>
0/
0$
#500000
0!
03
04
1(
#510000
1!
13
14
0(
#520000
0!
03
04
1(
#530000
1!
13
14
0(
#540000
0!
03
04
1(
#550000
1!
13
14
0(
#560000
0!
03
04
1(
#570000
1!
13
14
0(
#580000
0!
03
04
1(
#590000
1!
13
14
0(
#600000
0!
03
04
1(
#610000
1!
13
14
0(
#620000
0!
03
04
1(
#630000
1!
13
14
0(
#640000
0!
03
04
1(
#650000
1!
13
14
0(
#660000
0!
03
04
1(
#670000
1!
13
14
0(
#680000
0!
03
04
1(
#690000
1!
13
14
0(
#700000
0!
03
04
1(
#710000
1!
13
14
0(
#720000
0!
03
04
1(
#730000
1!
13
14
0(
#740000
0!
03
04
1(
#750000
1!
13
14
0(
#760000
0!
03
04
1(
#770000
1!
13
14
0(
#780000
0!
03
04
1(
#790000
1!
13
14
0(
#800000
0!
03
04
1(
#810000
1!
13
14
0(
#820000
0!
03
04
1(
#830000
1!
13
14
0(
#840000
0!
03
04
1(
#850000
1!
13
14
0(
#860000
0!
03
04
1(
#870000
1!
13
14
0(
#880000
0!
03
04
1(
#890000
1!
13
14
0(
#900000
0!
03
04
1(
#910000
1!
13
14
0(
#920000
0!
03
04
1(
#930000
1!
13
14
0(
#940000
0!
03
04
1(
#950000
1!
13
14
0(
#960000
0!
03
04
1(
#970000
1!
13
14
0(
#980000
0!
03
04
1(
#990000
1!
13
14
0(
