20191212/sort3/simulation/qsim/sort3.msim.vcd
$comment
	File created using the following command:
		vcd file sort3.msim.vcd -direction
$end
$date
	Thu Dec 12 13:30:19 2019
$end
$version
	ModelSim Version 10.1d
$end
$timescale
	1ps
$end
$scope module sort3_vlg_vec_tst $end
$var reg 1 ! clk $end
$var reg 1 " in_d $end
$var reg 8 # num1 [7:0] $end
$var reg 8 $ num2 [7:0] $end
$var reg 8 % num3 [7:0] $end
$var reg 8 & num4 [7:0] $end
$var reg 1 ' reset $end
$var wire 1 ( o1 [7] $end
$var wire 1 ) o1 [6] $end
$var wire 1 * o1 [5] $end
$var wire 1 + o1 [4] $end
$var wire 1 , o1 [3] $end
$var wire 1 - o1 [2] $end
$var wire 1 . o1 [1] $end
$var wire 1 / o1 [0] $end
$var wire 1 0 o2 [7] $end
$var wire 1 1 o2 [6] $end
$var wire 1 2 o2 [5] $end
$var wire 1 3 o2 [4] $end
$var wire 1 4 o2 [3] $end
$var wire 1 5 o2 [2] $end
$var wire 1 6 o2 [1] $end
$var wire 1 7 o2 [0] $end
$var wire 1 8 o3 [7] $end
$var wire 1 9 o3 [6] $end
$var wire 1 : o3 [5] $end
$var wire 1 ; o3 [4] $end
$var wire 1 < o3 [3] $end
$var wire 1 = o3 [2] $end
$var wire 1 > o3 [1] $end
$var wire 1 ? o3 [0] $end
$var wire 1 @ o4 [7] $end
$var wire 1 A o4 [6] $end
$var wire 1 B o4 [5] $end
$var wire 1 C o4 [4] $end
$var wire 1 D o4 [3] $end
$var wire 1 E o4 [2] $end
$var wire 1 F o4 [1] $end
$var wire 1 G o4 [0] $end
$var wire 1 H out [7] $end
$var wire 1 I out [6] $end
$var wire 1 J out [5] $end
$var wire 1 K out [4] $end
$var wire 1 L out [3] $end
$var wire 1 M out [2] $end
$var wire 1 N out [1] $end
$var wire 1 O out [0] $end
$var wire 1 P sampler $end
$scope module i1 $end
$var wire 1 Q gnd $end
$var wire 1 R vcc $end
$var wire 1 S unknown $end
$var tri1 1 T devclrn $end
$var tri1 1 U devpor $end
$var tri1 1 V devoe $end
$var wire 1 W out[0]~output_o $end
$var wire 1 X out[1]~output_o $end
$var wire 1 Y out[2]~output_o $end
$var wire 1 Z out[3]~output_o $end
$var wire 1 [ out[4]~output_o $end
$var wire 1 \ out[5]~output_o $end
$var wire 1 ] out[6]~output_o $end
$var wire 1 ^ out[7]~output_o $end
$var wire 1 _ o1[0]~output_o $end
$var wire 1 ` o1[1]~output_o $end
$var wire 1 a o1[2]~output_o $end
$var wire 1 b o1[3]~output_o $end
$var wire 1 c o1[4]~output_o $end
$var wire 1 d o1[5]~output_o $end
$var wire 1 e o1[6]~output_o $end
$var wire 1 f o1[7]~output_o $end
$var wire 1 g o2[0]~output_o $end
$var wire 1 h o2[1]~output_o $end
$var wire 1 i o2[2]~output_o $end
$var wire 1 j o2[3]~output_o $end
$var wire 1 k o2[4]~output_o $end
$var wire 1 l o2[5]~output_o $end
$var wire 1 m o2[6]~output_o $end
$var wire 1 n o2[7]~output_o $end
$var wire 1 o o3[0]~output_o $end
$var wire 1 p o3[1]~output_o $end
$var wire 1 q o3[2]~output_o $end
$var wire 1 r o3[3]~output_o $end
$var wire 1 s o3[4]~output_o $end
$var wire 1 t o3[5]~output_o $end
$var wire 1 u o3[6]~output_o $end
$var wire 1 v o3[7]~output_o $end
$var wire 1 w o4[0]~output_o $end
$var wire 1 x o4[1]~output_o $end
$var wire 1 y o4[2]~output_o $end
$var wire 1 z o4[3]~output_o $end
$var wire 1 { o4[4]~output_o $end
$var wire 1 | o4[5]~output_o $end
$var wire 1 } o4[6]~output_o $end
$var wire 1 ~ o4[7]~output_o $end
$var wire 1 !! clk~input_o $end
$var wire 1 "! clk~inputclkctrl_outclk $end
$var wire 1 #! num4[0]~input_o $end
$var wire 1 $! reset~input_o $end
$var wire 1 %! in_d~input_o $end
$var wire 1 &! count~5_combout $end
$var wire 1 '! count~6_combout $end
$var wire 1 (! out[0]~24_combout $end
$var wire 1 )! count~4_combout $end
$var wire 1 *! Equal1~0_combout $end
$var wire 1 +! num1[7]~input_o $end
$var wire 1 ,! buff~5_combout $end
$var wire 1 -! num2[7]~input_o $end
$var wire 1 .! buff~39_combout $end
$var wire 1 /! buff[1][7]~q $end
$var wire 1 0! buff~4_combout $end
$var wire 1 1! num1[6]~input_o $end
$var wire 1 2! buff~7_combout $end
$var wire 1 3! num2[6]~input_o $end
$var wire 1 4! buff~38_combout $end
$var wire 1 5! buff[1][6]~q $end
$var wire 1 6! buff~6_combout $end
$var wire 1 7! num2[5]~input_o $end
$var wire 1 8! num1[5]~input_o $end
$var wire 1 9! buff~9_combout $end
$var wire 1 :! buff~37_combout $end
$var wire 1 ;! buff[1][5]~q $end
$var wire 1 <! buff~8_combout $end
$var wire 1 =! num1[4]~input_o $end
$var wire 1 >! buff~11_combout $end
$var wire 1 ?! num2[4]~input_o $end
$var wire 1 @! buff~36_combout $end
$var wire 1 A! buff[1][4]~q $end
$var wire 1 B! buff~10_combout $end
$var wire 1 C! num2[3]~input_o $end
$var wire 1 D! num1[3]~input_o $end
$var wire 1 E! buff~13_combout $end
$var wire 1 F! buff~35_combout $end
$var wire 1 G! buff[1][3]~q $end
$var wire 1 H! buff~12_combout $end
$var wire 1 I! num2[2]~input_o $end
$var wire 1 J! num1[2]~input_o $end
$var wire 1 K! buff~15_combout $end
$var wire 1 L! buff~34_combout $end
$var wire 1 M! buff[1][2]~q $end
$var wire 1 N! buff~14_combout $end
$var wire 1 O! num1[1]~input_o $end
$var wire 1 P! buff~17_combout $end
$var wire 1 Q! num2[1]~input_o $end
$var wire 1 R! buff~33_combout $end
$var wire 1 S! buff[1][1]~q $end
$var wire 1 T! buff~16_combout $end
$var wire 1 U! num2[0]~input_o $end
$var wire 1 V! num1[0]~input_o $end
$var wire 1 W! buff~3_combout $end
$var wire 1 X! buff~32_combout $end
$var wire 1 Y! buff[1][0]~q $end
$var wire 1 Z! buff~2_combout $end
$var wire 1 [! LessThan1~1_cout $end
$var wire 1 \! LessThan1~3_cout $end
$var wire 1 ]! LessThan1~5_cout $end
$var wire 1 ^! LessThan1~7_cout $end
$var wire 1 _! LessThan1~9_cout $end
$var wire 1 `! LessThan1~11_cout $end
$var wire 1 a! LessThan1~13_cout $end
$var wire 1 b! LessThan1~14_combout $end
$var wire 1 c! out_X~1_combout $end
$var wire 1 d! out_X~2_combout $end
$var wire 1 e! buff~46_combout $end
$var wire 1 f! buff[2][6]~q $end
$var wire 1 g! num3[6]~input_o $end
$var wire 1 h! buff~19_combout $end
$var wire 1 i! out_X~3_combout $end
$var wire 1 j! buff~45_combout $end
$var wire 1 k! buff[2][5]~q $end
$var wire 1 l! num3[5]~input_o $end
$var wire 1 m! buff~20_combout $end
$var wire 1 n! out_X~4_combout $end
$var wire 1 o! num3[4]~input_o $end
$var wire 1 p! buff~44_combout $end
$var wire 1 q! buff[2][4]~q $end
$var wire 1 r! buff~21_combout $end
$var wire 1 s! out_X~5_combout $end
$var wire 1 t! buff~43_combout $end
$var wire 1 u! buff[2][3]~q $end
$var wire 1 v! num3[3]~input_o $end
$var wire 1 w! buff~22_combout $end
$var wire 1 x! out_X~6_combout $end
$var wire 1 y! num3[2]~input_o $end
$var wire 1 z! buff~42_combout $end
$var wire 1 {! buff[2][2]~q $end
$var wire 1 |! buff~23_combout $end
$var wire 1 }! out_X~7_combout $end
$var wire 1 ~! buff~41_combout $end
$var wire 1 !" buff[2][1]~q $end
$var wire 1 "" num3[1]~input_o $end
$var wire 1 #" buff~24_combout $end
$var wire 1 $" out_X~0_combout $end
$var wire 1 %" buff~40_combout $end
$var wire 1 &" buff[2][0]~q $end
$var wire 1 '" num3[0]~input_o $end
$var wire 1 (" buff~1_combout $end
$var wire 1 )" LessThan2~1_cout $end
$var wire 1 *" LessThan2~3_cout $end
$var wire 1 +" LessThan2~5_cout $end
$var wire 1 ," LessThan2~7_cout $end
$var wire 1 -" LessThan2~9_cout $end
$var wire 1 ." LessThan2~11_cout $end
$var wire 1 /" LessThan2~13_cout $end
$var wire 1 0" LessThan2~14_combout $end
$var wire 1 1" buff~47_combout $end
$var wire 1 2" buff[2][7]~q $end
$var wire 1 3" num3[7]~input_o $end
$var wire 1 4" buff~18_combout $end
$var wire 1 5" out_X~9_combout $end
$var wire 1 6" buff~55_combout $end
$var wire 1 7" buff[3][7]~q $end
$var wire 1 8" num4[7]~input_o $end
$var wire 1 9" buff~25_combout $end
$var wire 1 :" out_X~10_combout $end
$var wire 1 ;" num4[6]~input_o $end
$var wire 1 <" buff~54_combout $end
$var wire 1 =" buff[3][6]~q $end
$var wire 1 >" buff~26_combout $end
$var wire 1 ?" num4[5]~input_o $end
$var wire 1 @" out_X~11_combout $end
$var wire 1 A" buff~53_combout $end
$var wire 1 B" buff[3][5]~q $end
$var wire 1 C" buff~27_combout $end
$var wire 1 D" out_X~12_combout $end
$var wire 1 E" buff~52_combout $end
$var wire 1 F" buff[3][4]~q $end
$var wire 1 G" num4[4]~input_o $end
$var wire 1 H" buff~28_combout $end
$var wire 1 I" num4[3]~input_o $end
$var wire 1 J" out_X~13_combout $end
$var wire 1 K" buff~51_combout $end
$var wire 1 L" buff[3][3]~q $end
$var wire 1 M" buff~29_combout $end
$var wire 1 N" num4[2]~input_o $end
$var wire 1 O" out_X~14_combout $end
$var wire 1 P" buff~50_combout $end
$var wire 1 Q" buff[3][2]~q $end
$var wire 1 R" buff~30_combout $end
$var wire 1 S" out_X~15_combout $end
$var wire 1 T" num4[1]~input_o $end
$var wire 1 U" buff~49_combout $end
$var wire 1 V" buff[3][1]~q $end
$var wire 1 W" buff~31_combout $end
$var wire 1 X" out_X~8_combout $end
$var wire 1 Y" out[0]~9 $end
$var wire 1 Z" out[1]~11 $end
$var wire 1 [" out[2]~13 $end
$var wire 1 \" out[3]~15 $end
$var wire 1 ]" out[4]~17 $end
$var wire 1 ^" out[5]~19 $end
$var wire 1 _" out[6]~21 $end
$var wire 1 `" out[7]~23 $end
$var wire 1 a" LessThan3~0_combout $end
$var wire 1 b" buff~48_combout $end
$var wire 1 c" buff[3][0]~q $end
$var wire 1 d" buff~0_combout $end
$var wire 1 e" out[0]~8_combout $end
$var wire 1 f" out[0]~reg0_q $end
$var wire 1 g" out[1]~10_combout $end
$var wire 1 h" out[1]~reg0_q $end
$var wire 1 i" out[2]~12_combout $end
$var wire 1 j" out[2]~reg0_q $end
$var wire 1 k" out[3]~14_combout $end
$var wire 1 l" out[3]~reg0_q $end
$var wire 1 m" out[4]~16_combout $end
$var wire 1 n" out[4]~reg0_q $end
$var wire 1 o" out[5]~18_combout $end
$var wire 1 p" out[5]~reg0_q $end
$var wire 1 q" out[6]~20_combout $end
$var wire 1 r" out[6]~reg0_q $end
$var wire 1 s" out[7]~22_combout $end
$var wire 1 t" out[7]~reg0_q $end
$var wire 1 u" count [2] $end
$var wire 1 v" count [1] $end
$var wire 1 w" count [0] $end
$upscope $end
$upscope $end
$enddefinitions $end
#0
$dumpvars
0!
1"
b1000000 #
b1011 $
b11100110 %
b1000010 &
1'
1/
1.
1-
1,
1+
1*
1)
1(
07
06
05
04
03
02
01
00
0?
0>
0=
0<
0;
0:
09
08
0G
0F
0E
0D
0C
0B
0A
0@
0O
0N
0M
0L
0K
0J
0I
0H
xP
0Q
1R
xS
1T
1U
1V
0W
0X
0Y
0Z
0[
0\
0]
0^
1_
1`
1a
1b
1c
1d
1e
1f
0g
0h
0i
0j
0k
0l
0m
0n
0o
0p
0q
0r
0s
0t
0u
0v
0w
0x
0y
0z
0{
0|
0}
0~
0!!
0"!
0#!
1$!
1%!
1&!
0'!
1(!
0)!
1*!
0+!
0,!
0-!
0.!
0/!
00!
11!
12!
03!
14!
05!
06!
07!
08!
09!
0:!
0;!
0<!
0=!
0>!
0?!
0@!
0A!
0B!
1C!
0D!
0E!
0F!
0G!
1H!
0I!
0J!
0K!
0L!
0M!
0N!
0O!
0P!
1Q!
0R!
0S!
1T!
1U!
0V!
0W!
0X!
0Y!
1Z!
0[!
1\!
0]!
1^!
0_!
1`!
1a!
1b!
0c!
0d!
1e!
0f!
1g!
1h!
0i!
1j!
0k!
1l!
1m!
0n!
0o!
0p!
0q!
0r!
1s!
0t!
0u!
0v!
0w!
0x!
1y!
1z!
0{!
1|!
1}!
1~!
0!"
1""
1#"
1$"
0%"
0&"
0'"
0("
1)"
0*"
0+"
0,"
1-"
1."
0/"
00"
11"
02"
13"
14"
05"
06"
07"
08"
09"
0:"
1;"
1<"
0="
1>"
0?"
0@"
0A"
0B"
0C"
0D"
0E"
0F"
0G"
0H"
0I"
1J"
0K"
0L"
0M"
0N"
0O"
0P"
0Q"
0R"
1S"
1T"
1U"
0V"
1W"
1X"
1Y"
0Z"
1["
0\"
1]"
0^"
0_"
1`"
0a"
0b"
0c"
0d"
1e"
0f"
1g"
0h"
0i"
0j"
1k"
0l"
0m"
0n"
0o"
0p"
0q"
0r"
0s"
0t"
0w"
0v"
0u"
$end
#10000
1!
0'
1!!
0$!
1"!
0P
0(!
0&!
1b"
1P"
1K"
1E"
1A"
16"
1%"
1t!
1p!
1X!
1R!
1L!
1F!
1@!
1:!
1.!
1w"
1l"
1h"
1f"
1V"
1="
12"
1!"
1{!
1k!
1f!
15!
1W!
1P!
1K!
1E!
1>!
19!
1,!
0*!
1Z
1X
1W
1x
1}
1v
1p
1q
1t
1u
1m
1L
1N
1O
1F
1A
18
1>
1=
1:
19
11
1]!
1_!
0`!
0Z!
0T!
0H!
16!
0^!
0$"
1[!
0}!
0\!
0s!
1d!
0X"
0)"
0S"
1*"
0J"
1,"
1:"
0Y"
0e"
1Z"
0g"
0k"
0-"
1_"
1q"
0["
0`"
1\"
1a"
0]"
1^"
0_"
1`"
0a"
#20000
0!
0!!
0"!
1P
#30000
1!
1!!
1"!
0P
0w"
1c"
1Q"
1L"
1F"
1B"
17"
1&"
1u!
1q!
1Y!
1S!
1M!
1G!
1A!
1;!
1/!
0W!
0P!
0K!
0E!
0>!
09!
0,!
1*!
1d"
1R"
1M"
1H"
1C"
19"
1("
1w!
1r!
1Z!
1T!
1N!
1H!
1B!
1<!
10!
1w
1y
1z
1{
1|
1~
1o
1r
1s
1g
1h
1i
1j
1k
1l
1n
1G
1E
1D
1C
1B
1@
1?
1<
1;
17
16
15
14
13
12
10
1$"
0[!
1}!
1\!
1x!
0]!
1s!
1^!
1n!
0_!
1i!
1`!
1c!
0b!
0d"
0R"
0M"
0H"
0C"
09"
0("
0w!
0r!
0N!
0B!
0<!
06!
00!
1X"
1)"
1S"
1O"
1J"
0,"
1D"
1-"
1@"
15"
0$"
0}!
0x!
0s!
0n!
0i!
0c!
1b!
1Y"
1e"
1g"
1["
1i"
0\"
1k"
1]"
1m"
0^"
1o"
0`"
1s"
0X"
0)"
0S"
0O"
0J"
1,"
0D"
0@"
05"
1$"
1}!
1s!
0d!
0g"
0k"
0m"
0o"
1_"
1a"
0Y"
0e"
0["
0i"
0-"
1`"
0s"
1X"
1)"
1S"
1J"
0,"
0:"
0`"
1g"
1k"
0a"
1Y"
1e"
0*"
1-"
0_"
0q"
1a"
0Z"
1`"
1["
0a"
#40000
1'
0!
1$!
0!!
0"!
1P
1(!
1&!
0b"
0P"
0K"
0E"
0A"
06"
0%"
0t!
0p!
0X!
0R!
0L!
0F!
0@!
0:!
0.!
#50000
1!
1!!
1"!
0P
1w"
0c"
0Q"
0L"
0F"
0B"
07"
0&"
0u!
0q!
0Y!
0S!
0M!
0G!
0A!
0;!
0/!
1W!
1P!
1K!
1E!
1>!
19!
1,!
0*!
1'!
0&!
0w
0y
0z
0{
0|
0~
0o
0r
0s
0g
0h
0i
0j
0k
0l
0n
0G
0E
0D
0C
0B
0@
0?
0<
0;
07
06
05
04
03
02
00
1X!
1R!
1]!
1L!
1F!
1_!
1@!
0`!
1:!
1.!
0Z!
0T!
0H!
16!
0^!
0$"
1[!
0}!
0\!
0s!
1d!
0X"
0)"
0S"
1*"
0J"
1,"
1:"
0Y"
0e"
1Z"
0g"
0k"
0-"
1_"
1q"
0["
0`"
1\"
1a"
0]"
0U"
1^"
0_"
1`"
0a"
1U"
#60000
0!
0!!
0"!
1P
#70000
1!
1!!
1"!
0P
1v"
0w"
1r"
0l"
0h"
0f"
1Y!
1S!
1M!
1G!
1A!
1;!
1/!
1&!
1Z!
1T!
1N!
1H!
1B!
1<!
10!
1]
0Z
0X
0W
1g
1h
1i
1j
1k
1l
1n
1I
0L
0N
0O
17
16
15
14
13
12
10
1$"
0[!
1}!
1x!
1s!
1n!
1i!
1c!
1X"
1)"
1\!
1S"
1O"
1J"
0,"
1D"
1-"
1@"
15"
1Y"
1e"
0*"
0]!
1g"
1["
1i"
0\"
1k"
1]"
1m"
0."
0^"
1o"
0`"
1s"
0Z"
1+"
1^!
1/"
1_"
1a"
0_!
10"
1b"
1P"
1K"
1E"
1A"
16"
1`!
0X"
0J"
0D"
1%"
1t!
1p!
0a!
0b"
0Y"
0e"
0k"
0K"
0m"
0E"
0b!
1Z"
#80000
0!
0!!
0"!
1P
#90000
1!
1!!
1"!
0P
1w"
1h"
1Q"
1B"
17"
1&"
1u!
1q!
0'!
0&!
1R"
1C"
19"
1("
1w!
1r!
1X
1y
1|
1~
1o
1r
1s
1N
1E
1B
1@
1?
1<
1;
0["
1X"
0)"
1J"
1D"
1k"
1b"
1Y"
1e"
1*"
1K"
1m"
1E"
0Z"
0+"
1["
1,"
0-"
1."
0/"
00"
#100000
0!
0!!
0"!
1P
#110000
1!
1!!
1"!
0P
0v"
0w"
1t"
1p"
1j"
1c"
1L"
1F"
0W!
0P!
0K!
0E!
0>!
09!
0,!
1*!
1&!
1d"
1M"
1H"
1^
1\
1Y
1w
1z
1{
1H
1J
1M
1G
1D
1C
0$"
0}!
0x!
0s!
0n!
0i!
0c!
0d"
0R"
0M"
0H"
0C"
09"
0("
0w!
0r!
0N!
0B!
0<!
06!
00!
0Y"
0X"
0%"
0S"
0O"
0J"
0t!
0D"
0p!
0@"
05"
1Y"
0L!
0@!
0:!
1a!
04!
0.!
1Z"
0b"
0Y"
0e"
0g"
0U"
0["
0i"
0P"
0k"
0K"
0m"
0E"
0o"
0A"
0s"
06"
1b!
1\"
1$"
1}!
1s!
0d!
0X!
0R!
0F!
14!
0]"
1X"
1)"
1S"
1J"
0,"
0:"
1^"
1b"
1Y"
1e"
0*"
1g"
1U"
0\"
1k"
1K"
1-"
0_"
0q"
0<"
0Z"
1]"
1`"
1["
0^"
0a"
0b"
0K"
1<"
#120000
0"
0!
0%!
0!!
0"!
1P
0(!
0&!
1b"
1P"
1K"
1E"
1A"
16"
1%"
1t!
1p!
1X!
1R!
1L!
1F!
1@!
1:!
1.!
#130000
1!
1!!
1"!
0P
#140000
0!
0!!
0"!
1P
#150000
1!
1!!
1"!
0P
#160000
0!
0!!
0"!
1P
#170000
1!
1!!
1"!
0P
#180000
0!
0!!
0"!
1P
#190000
1!
1!!
1"!
0P
#200000
0!
0!!
0"!
1P
#210000
1!
1!!
1"!
0P
#220000
0!
0!!
0"!
1P
#230000
1!
1!!
1"!
0P
#240000
0!
0!!
0"!
1P
#250000
1!
1!!
1"!
0P
#260000
0!
0!!
0"!
1P
#270000
1"
1!
1%!
1!!
1"!
0P
1(!
1&!
0b"
0P"
0K"
0E"
0A"
06"
0%"
0t!
0p!
0X!
0R!
0L!
0F!
0@!
0:!
0.!
#280000
0!
0!!
0"!
1P
#290000
1!
1!!
1"!
0P
1w"
0t"
0r"
0p"
1l"
0j"
1f"
0c"
0Q"
0L"
0F"
0B"
07"
0&"
0u!
0q!
0Y!
0S!
0M!
0G!
0A!
0;!
0/!
1W!
1P!
1K!
1E!
1>!
19!
1,!
0*!
1'!
0&!
0^
0]
0\
1Z
0Y
1W
0w
0y
0z
0{
0|
0~
0o
0r
0s
0g
0h
0i
0j
0k
0l
0n
0H
0I
0J
1L
0M
1O
0G
0E
0D
0C
0B
0@
0?
0<
0;
07
06
05
04
03
02
00
1X!
1R!
1]!
1L!
1F!
1_!
1@!
0`!
1:!
1.!
0Z!
0T!
0H!
16!
0^!
0$"
1[!
0}!
0\!
0s!
1d!
0X"
0)"
0S"
1*"
0J"
1,"
1:"
0Y"
0e"
1Z"
0g"
0k"
0-"
1_"
1q"
0["
0`"
1\"
1a"
0]"
0U"
1^"
0_"
1`"
0a"
1U"
#300000
0!
0!!
0"!
1P
#310000
1!
1!!
1"!
0P
1v"
0w"
1r"
0l"
0h"
0f"
1Y!
1S!
1M!
1G!
1A!
1;!
1/!
1&!
1Z!
1T!
1N!
1H!
1B!
1<!
10!
1]
0Z
0X
0W
1g
1h
1i
1j
1k
1l
1n
1I
0L
0N
0O
17
16
15
14
13
12
10
1$"
0[!
1}!
1x!
1s!
1n!
1i!
1c!
1X"
1)"
1\!
1S"
1O"
1J"
0,"
1D"
1-"
1@"
15"
1Y"
1e"
0*"
0]!
1g"
1["
1i"
0\"
1k"
1]"
1m"
0."
0^"
1o"
0`"
1s"
0Z"
1+"
1^!
1/"
1_"
1a"
0_!
10"
1b"
1P"
1K"
1E"
1A"
16"
1`!
0X"
0J"
0D"
1%"
1t!
1p!
0a!
0b"
0Y"
0e"
0k"
0K"
0m"
0E"
0b!
1Z"
#320000
0!
0!!
0"!
1P
#330000
1!
1!!
1"!
0P
1w"
1h"
1Q"
1B"
17"
1&"
1u!
1q!
0'!
0&!
1R"
1C"
19"
1("
1w!
1r!
1X
1y
1|
1~
1o
1r
1s
1N
1E
1B
1@
1?
1<
1;
0["
1X"
0)"
1J"
1D"
1k"
1b"
1Y"
1e"
1*"
1K"
1m"
1E"
0Z"
0+"
1["
1,"
0-"
1."
0/"
00"
#340000
0!
0!!
0"!
1P
#350000
1!
1!!
1"!
0P
0v"
0w"
1t"
1p"
1j"
1c"
1L"
1F"
0W!
0P!
0K!
0E!
0>!
09!
0,!
1*!
1&!
1d"
1M"
1H"
1^
1\
1Y
1w
1z
1{
1H
1J
1M
1G
1D
1C
0$"
0}!
0x!
0s!
0n!
0i!
0c!
0d"
0R"
0M"
0H"
0C"
09"
0("
0w!
0r!
0N!
0B!
0<!
06!
00!
0Y"
0X"
0%"
0S"
0O"
0J"
0t!
0D"
0p!
0@"
05"
1Y"
0L!
0@!
0:!
1a!
04!
0.!
1Z"
0b"
0Y"
0e"
0g"
0U"
0["
0i"
0P"
0k"
0K"
0m"
0E"
0o"
0A"
0s"
06"
1b!
1\"
1$"
1}!
1s!
0d!
0X!
0R!
0F!
14!
0]"
1X"
1)"
1S"
1J"
0,"
0:"
1^"
1b"
1Y"
1e"
0*"
1g"
1U"
0\"
1k"
1K"
1-"
0_"
0q"
0<"
0Z"
1]"
1`"
1["
0^"
0a"
0b"
0K"
1<"
#360000
0!
0!!
0"!
1P
#370000
1!
1!!
1"!
0P
1w"
0t"
0r"
0p"
1l"
0j"
1f"
0c"
0Q"
0L"
0F"
0B"
07"
0&"
0u!
0q!
0Y!
0S!
0M!
0G!
0A!
0;!
0/!
1W!
1P!
1K!
1E!
1>!
19!
1,!
0*!
1'!
0&!
0^
0]
0\
1Z
0Y
1W
0w
0y
0z
0{
0|
0~
0o
0r
0s
0g
0h
0i
0j
0k
0l
0n
0H
0I
0J
1L
0M
1O
0G
0E
0D
0C
0B
0@
0?
0<
0;
07
06
05
04
03
02
00
1X!
1R!
1]!
1L!
1F!
1_!
1@!
0`!
1:!
1.!
0Z!
0T!
0H!
16!
0^!
0$"
1[!
0}!
0\!
0s!
1d!
0X"
0)"
0S"
1*"
0J"
1,"
1:"
0Y"
0e"
1Z"
0g"
0k"
0-"
1_"
1q"
0["
0`"
1\"
1a"
0]"
0U"
1^"
0_"
1`"
0a"
1U"
#380000
0!
0!!
0"!
1P
#390000
1!
1!!
1"!
0P
1v"
0w"
1r"
0l"
0h"
0f"
1Y!
1S!
1M!
1G!
1A!
1;!
1/!
1&!
1Z!
1T!
1N!
1H!
1B!
1<!
10!
1]
0Z
0X
0W
1g
1h
1i
1j
1k
1l
1n
1I
0L
0N
0O
17
16
15
14
13
12
10
1$"
0[!
1}!
1x!
1s!
1n!
1i!
1c!
1X"
1)"
1\!
1S"
1O"
1J"
0,"
1D"
1-"
1@"
15"
1Y"
1e"
0*"
0]!
1g"
1["
1i"
0\"
1k"
1]"
1m"
0."
0^"
1o"
0`"
1s"
0Z"
1+"
1^!
1/"
1_"
1a"
0_!
10"
1b"
1P"
1K"
1E"
1A"
16"
1`!
0X"
0J"
0D"
1%"
1t!
1p!
0a!
0b"
0Y"
0e"
0k"
0K"
0m"
0E"
0b!
1Z"
#400000
0!
0!!
0"!
1P
#410000
1!
1!!
1"!
0P
1w"
1h"
1Q"
1B"
17"
1&"
1u!
1q!
0'!
0&!
1R"
1C"
19"
1("
1w!
1r!
1X
1y
1|
1~
1o
1r
1s
1N
1E
1B
1@
1?
1<
1;
0["
1X"
0)"
1J"
1D"
1k"
1b"
1Y"
1e"
1*"
1K"
1m"
1E"
0Z"
0+"
1["
1,"
0-"
1."
0/"
00"
#420000
0!
0!!
0"!
1P
#430000
1!
1!!
1"!
0P
0v"
0w"
1t"
1p"
1j"
1c"
1L"
1F"
0W!
0P!
0K!
0E!
0>!
09!
0,!
1*!
1&!
1d"
1M"
1H"
1^
1\
1Y
1w
1z
1{
1H
1J
1M
1G
1D
1C
0$"
0}!
0x!
0s!
0n!
0i!
0c!
0d"
0R"
0M"
0H"
0C"
09"
0("
0w!
0r!
0N!
0B!
0<!
06!
00!
0Y"
0X"
0%"
0S"
0O"
0J"
0t!
0D"
0p!
0@"
05"
1Y"
0L!
0@!
0:!
1a!
04!
0.!
1Z"
0b"
0Y"
0e"
0g"
0U"
0["
0i"
0P"
0k"
0K"
0m"
0E"
0o"
0A"
0s"
06"
1b!
1\"
1$"
1}!
1s!
0d!
0X!
0R!
0F!
14!
0]"
1X"
1)"
1S"
1J"
0,"
0:"
1^"
1b"
1Y"
1e"
0*"
1g"
1U"
0\"
1k"
1K"
1-"
0_"
0q"
0<"
0Z"
1]"
1`"
1["
0^"
0a"
0b"
0K"
1<"
#440000
0!
0!!
0"!
1P
#450000
1!
1!!
1"!
0P
1w"
0t"
0r"
0p"
1l"
0j"
1f"
0c"
0Q"
0L"
0F"
0B"
07"
0&"
0u!
0q!
0Y!
0S!
0M!
0G!
0A!
0;!
0/!
1W!
1P!
1K!
1E!
1>!
19!
1,!
0*!
1'!
0&!
0^
0]
0\
1Z
0Y
1W
0w
0y
0z
0{
0|
0~
0o
0r
0s
0g
0h
0i
0j
0k
0l
0n
0H
0I
0J
1L
0M
1O
0G
0E
0D
0C
0B
0@
0?
0<
0;
07
06
05
04
03
02
00
1X!
1R!
1]!
1L!
1F!
1_!
1@!
0`!
1:!
1.!
0Z!
0T!
0H!
16!
0^!
0$"
1[!
0}!
0\!
0s!
1d!
0X"
0)"
0S"
1*"
0J"
1,"
1:"
0Y"
0e"
1Z"
0g"
0k"
0-"
1_"
1q"
0["
0`"
1\"
1a"
0]"
0U"
1^"
0_"
1`"
0a"
1U"
#460000
0!
0!!
0"!
1P
#470000
1!
1!!
1"!
0P
1v"
0w"
1r"
0l"
0h"
0f"
1Y!
1S!
1M!
1G!
1A!
1;!
1/!
1&!
1Z!
1T!
1N!
1H!
1B!
1<!
10!
1]
0Z
0X
0W
1g
1h
1i
1j
1k
1l
1n
1I
0L
0N
0O
17
16
15
14
13
12
10
1$"
0[!
1}!
1x!
1s!
1n!
1i!
1c!
1X"
1)"
1\!
1S"
1O"
1J"
0,"
1D"
1-"
1@"
15"
1Y"
1e"
0*"
0]!
1g"
1["
1i"
0\"
1k"
1]"
1m"
0."
0^"
1o"
0`"
1s"
0Z"
1+"
1^!
1/"
1_"
1a"
0_!
10"
1b"
1P"
1K"
1E"
1A"
16"
1`!
0X"
0J"
0D"
1%"
1t!
1p!
0a!
0b"
0Y"
0e"
0k"
0K"
0m"
0E"
0b!
1Z"
#480000
0!
0!!
0"!
1P
#490000
1!
1!!
1"!
0P
1w"
1h"
1Q"
1B"
17"
1&"
1u!
1q!
0'!
0&!
1R"
1C"
19"
1("
1w!
1r!
1X
1y
1|
1~
1o
1r
1s
1N
1E
1B
1@
1?
1<
1;
0["
1X"
0)"
1J"
1D"
1k"
1b"
1Y"
1e"
1*"
1K"
1m"
1E"
0Z"
0+"
1["
1,"
0-"
1."
0/"
00"
#500000
0!
0!!
0"!
1P
#510000
1!
1!!
1"!
0P
0v"
0w"
1t"
1p"
1j"
1c"
1L"
1F"
0W!
0P!
0K!
0E!
0>!
09!
0,!
1*!
1&!
1d"
1M"
1H"
1^
1\
1Y
1w
1z
1{
1H
1J
1M
1G
1D
1C
0$"
0}!
0x!
0s!
0n!
0i!
0c!
0d"
0R"
0M"
0H"
0C"
09"
0("
0w!
0r!
0N!
0B!
0<!
06!
00!
0Y"
0X"
0%"
0S"
0O"
0J"
0t!
0D"
0p!
0@"
05"
1Y"
0L!
0@!
0:!
1a!
04!
0.!
1Z"
0b"
0Y"
0e"
0g"
0U"
0["
0i"
0P"
0k"
0K"
0m"
0E"
0o"
0A"
0s"
06"
1b!
1\"
1$"
1}!
1s!
0d!
0X!
0R!
0F!
14!
0]"
1X"
1)"
1S"
1J"
0,"
0:"
1^"
1b"
1Y"
1e"
0*"
1g"
1U"
0\"
1k"
1K"
1-"
0_"
0q"
0<"
0Z"
1]"
1`"
1["
0^"
0a"
0b"
0K"
1<"
#520000
0!
0!!
0"!
1P
