20191024/N1/simulation/qsim/N1.msim.vcd
$comment
	File created using the following command:
		vcd file N1.msim.vcd -direction
$end
$date
	Thu Nov 07 12:26:14 2019
$end
$version
	ModelSim Version 10.1d
$end
$timescale
	1ps
$end
$scope module N1_vlg_vec_tst $end
$var reg 1 ! clk $end
$var reg 1 " d_vail $end
$var reg 4 # data_in [3:0] $end
$var reg 1 $ rst $end
$var wire 1 % crc [15] $end
$var wire 1 & crc [14] $end
$var wire 1 ' crc [13] $end
$var wire 1 ( crc [12] $end
$var wire 1 ) crc [11] $end
$var wire 1 * crc [10] $end
$var wire 1 + crc [9] $end
$var wire 1 , crc [8] $end
$var wire 1 - crc [7] $end
$var wire 1 . crc [6] $end
$var wire 1 / crc [5] $end
$var wire 1 0 crc [4] $end
$var wire 1 1 crc [3] $end
$var wire 1 2 crc [2] $end
$var wire 1 3 crc [1] $end
$var wire 1 4 crc [0] $end
$var wire 1 5 sampler $end
$scope module i1 $end
$var wire 1 6 gnd $end
$var wire 1 7 vcc $end
$var wire 1 8 unknown $end
$var tri1 1 9 devclrn $end
$var tri1 1 : devpor $end
$var tri1 1 ; devoe $end
$var wire 1 < crc~2_combout $end
$var wire 1 = crc[0]~output_o $end
$var wire 1 > crc[1]~output_o $end
$var wire 1 ? crc[2]~output_o $end
$var wire 1 @ crc[3]~output_o $end
$var wire 1 A crc[4]~output_o $end
$var wire 1 B crc[5]~output_o $end
$var wire 1 C crc[6]~output_o $end
$var wire 1 D crc[7]~output_o $end
$var wire 1 E crc[8]~output_o $end
$var wire 1 F crc[9]~output_o $end
$var wire 1 G crc[10]~output_o $end
$var wire 1 H crc[11]~output_o $end
$var wire 1 I crc[12]~output_o $end
$var wire 1 J crc[13]~output_o $end
$var wire 1 K crc[14]~output_o $end
$var wire 1 L crc[15]~output_o $end
$var wire 1 M clk~input_o $end
$var wire 1 N clk~inputclkctrl_outclk $end
$var wire 1 O data_in[2]~input_o $end
$var wire 1 P data_in[1]~input_o $end
$var wire 1 Q data_in[0]~input_o $end
$var wire 1 R data~0_combout $end
$var wire 1 S d_vail~input_o $end
$var wire 1 T rst~input_o $end
$var wire 1 U crc~10_combout $end
$var wire 1 V crc[0]~reg0feeder_combout $end
$var wire 1 W crc[0]~reg0_q $end
$var wire 1 X crc~3_combout $end
$var wire 1 Y crc[1]~reg0feeder_combout $end
$var wire 1 Z crc[1]~reg0_q $end
$var wire 1 [ data_in[3]~input_o $end
$var wire 1 \ crc~4_combout $end
$var wire 1 ] crc[2]~reg0_q $end
$var wire 1 ^ crc~5_combout $end
$var wire 1 _ crc[3]~reg0_q $end
$var wire 1 ` crc~6_combout $end
$var wire 1 a crc[4]~reg0_q $end
$var wire 1 b crc~7_combout $end
$var wire 1 c crc[5]~reg0feeder_combout $end
$var wire 1 d crc[5]~reg0_q $end
$var wire 1 e crc~8_combout $end
$var wire 1 f crc[6]~reg0_q $end
$var wire 1 g crc[11]~reg0_q $end
$var wire 1 h crc[12]~reg0_q $end
$var wire 1 i crc~9_combout $end
$var wire 1 j crc[13]~reg0_q $end
$var wire 1 k crc[14]~reg0_q $end
$var wire 1 l crc[15]~reg0_q $end
$upscope $end
$upscope $end
$enddefinitions $end
#0
$dumpvars
0!
0"
b0 #
1$
04
03
02
01
00
0/
0.
0-
0,
0+
0*
0)
0(
0'
0&
0%
x5
06
17
x8
19
1:
1;
0<
0=
0>
0?
0@
0A
0B
0C
0D
0E
0F
0G
0H
0I
0J
0K
0L
0M
0N
0O
0P
0Q
0R
0S
1T
0U
0V
0W
0X
0Y
0Z
0[
0\
0]
0^
0_
0`
0a
0b
0c
0d
0e
0f
0g
0h
0i
0j
0k
0l
$end
#10000
1!
0$
1M
0T
1N
05
#20000
0!
0M
0N
15
#30000
1!
1M
1N
05
#40000
0!
0M
0N
15
#50000
1!
1M
1N
05
#60000
b1000 #
b1001 #
1$
0!
1Q
1[
1T
0M
0N
15
#70000
1!
1M
1N
05
#80000
0!
0M
0N
15
#90000
1!
1M
1N
05
#100000
1"
0!
1S
0M
0N
15
1e
1`
1^
1X
1<
1Y
#110000
1!
1M
1N
05
1l
1h
1f
1a
1_
1Z
1L
1I
1C
1A
1@
1>
1%
1(
1.
10
11
13
#120000
0!
0M
0N
15
#130000
0"
1!
0S
1M
1N
05
0e
0`
0^
0X
0<
0Y
#140000
0!
0M
0N
15
#150000
b1011 #
b1010 #
1!
0Q
1P
1M
1N
05
0l
0h
0f
0a
0_
0Z
0L
0I
0C
0A
0@
0>
0%
0(
0.
00
01
03
#160000
0!
0M
0N
15
#170000
1!
1M
1N
05
#180000
0!
0M
0N
15
#190000
1!
1M
1N
05
#200000
1"
0!
1S
0M
0N
15
1i
1e
1<
1\
#210000
1!
1M
1N
05
1l
1j
1f
1]
1L
1J
1C
1?
1%
1'
1.
12
#220000
0!
0M
0N
15
#230000
0"
1!
0S
1M
1N
05
0i
0e
0<
0\
#240000
0!
0M
0N
15
#250000
1!
1M
1N
05
0l
0j
0f
0]
0L
0J
0C
0?
0%
0'
0.
02
#260000
0!
0M
0N
15
#270000
b10 #
b0 #
1!
0P
0[
1M
1N
05
#280000
0!
0M
0N
15
#290000
1!
1M
1N
05
#300000
0!
0M
0N
15
#310000
1!
1M
1N
05
#320000
0!
0M
0N
15
#330000
1!
1M
1N
05
#340000
0!
0M
0N
15
#350000
1!
1M
1N
05
#360000
0!
0M
0N
15
#370000
1!
1M
1N
05
#380000
0!
0M
0N
15
#390000
1!
1M
1N
05
#400000
0!
0M
0N
15
#410000
1!
1M
1N
05
#420000
0!
0M
0N
15
#430000
1!
1M
1N
05
#440000
0!
0M
0N
15
#450000
1!
1M
1N
05
#460000
0!
0M
0N
15
#470000
1!
1M
1N
05
#480000
0!
0M
0N
15
#490000
1!
1M
1N
05
#500000
0!
0M
0N
15
#510000
1!
1M
1N
05
#520000
0!
0M
0N
15
#530000
1!
1M
1N
05
#540000
0!
0M
0N
15
#550000
1!
1M
1N
05
#560000
0!
0M
0N
15
#570000
1!
1M
1N
05
#580000
0!
0M
0N
15
#590000
1!
1M
1N
05
#600000
0!
0M
0N
15
#610000
1!
1M
1N
05
#620000
0!
0M
0N
15
#630000
1!
1M
1N
05
#640000
0!
0M
0N
15
#650000
1!
1M
1N
05
#660000
0!
0M
0N
15
#670000
1!
1M
1N
05
#680000
0!
0M
0N
15
#690000
1!
1M
1N
05
#700000
0!
0M
0N
15
#710000
1!
1M
1N
05
#720000
0!
0M
0N
15
#730000
1!
1M
1N
05
#740000
0!
0M
0N
15
#750000
1!
1M
1N
05
#760000
0!
0M
0N
15
#770000
1!
1M
1N
05
#780000
0!
0M
0N
15
#790000
1!
1M
1N
05
#800000
0!
0M
0N
15
#810000
1!
1M
1N
05
#820000
0!
0M
0N
15
#830000
1!
1M
1N
05
#840000
0!
0M
0N
15
#850000
1!
1M
1N
05
#860000
0!
0M
0N
15
#870000
1!
1M
1N
05
#880000
0!
0M
0N
15
#890000
1!
1M
1N
05
#900000
0!
0M
0N
15
#910000
1!
1M
1N
05
#920000
0!
0M
0N
15
#930000
1!
1M
1N
05
#940000
0!
0M
0N
15
#950000
1!
1M
1N
05
#960000
0!
0M
0N
15
#970000
1!
1M
1N
05
#980000
0!
0M
0N
15
#990000
1!
1M
1N
05
