20191017/N2/simulation/qsim/N2.msim.vcd
$comment
	File created using the following command:
		vcd file N2.msim.vcd -direction
$end
$date
	Wed Nov 06 22:51:09 2019
$end
$version
	ModelSim Version 10.1d
$end
$timescale
	1ps
$end
$scope module N2_vlg_vec_tst $end
$var reg 1 ! clk $end
$var reg 1 " in $end
$var reg 1 # rst $end
$var wire 1 $ out $end
$var wire 1 % sampler $end
$scope module i1 $end
$var wire 1 & gnd $end
$var wire 1 ' vcc $end
$var wire 1 ( unknown $end
$var tri1 1 ) devclrn $end
$var tri1 1 * devpor $end
$var tri1 1 + devoe $end
$var wire 1 , state.1001~q $end
$var wire 1 - in~input_o $end
$var wire 1 . state.1001~feeder_combout $end
$var wire 1 / out~output_o $end
$var wire 1 0 clk~input_o $end
$var wire 1 1 clk~inputclkctrl_outclk $end
$var wire 1 2 rst~input_o $end
$var wire 1 3 state~24_combout $end
$var wire 1 4 state~25_combout $end
$var wire 1 5 state.0001~q $end
$var wire 1 6 state~23_combout $end
$var wire 1 7 state.0010~q $end
$var wire 1 8 state~21_combout $end
$var wire 1 9 state~22_combout $end
$var wire 1 : state.0011~q $end
$var wire 1 ; state~20_combout $end
$var wire 1 < state.0100~q $end
$var wire 1 = state~19_combout $end
$var wire 1 > state.0101~q $end
$var wire 1 ? state~18_combout $end
$var wire 1 @ state.0110~q $end
$var wire 1 A state~17_combout $end
$var wire 1 B state.0111~q $end
$var wire 1 C state~16_combout $end
$var wire 1 D state.1000~q $end
$var wire 1 E out~0_combout $end
$var wire 1 F out~reg0_q $end
$upscope $end
$upscope $end
$enddefinitions $end
#0
$dumpvars
0!
0"
1#
0$
x%
0&
1'
x(
1)
1*
1+
0,
0-
0.
0/
00
01
12
03
04
05
06
07
08
09
0:
0;
0<
0=
0>
0?
0@
0A
0B
0C
0D
0E
0F
$end
#10000
1!
10
11
0%
#20000
0#
0!
02
00
01
1%
13
14
#30000
1!
10
11
0%
15
#40000
1"
0!
1-
00
01
1%
16
03
04
#50000
1!
10
11
0%
17
05
18
06
19
#60000
0!
00
01
1%
#70000
1!
10
11
0%
1:
07
08
09
#80000
0"
0!
0-
00
01
1%
1;
13
#90000
1!
10
11
0%
1<
0:
0;
14
#100000
1"
0!
1-
00
01
1%
1=
03
04
#110000
1!
10
11
0%
1>
0<
18
0=
19
#120000
0"
0!
0-
00
01
1%
1?
09
13
#130000
1!
10
11
0%
1@
0>
0?
08
14
#140000
1"
0!
1-
00
01
1%
1A
03
04
#150000
1!
10
11
0%
1B
0@
18
0A
19
#160000
0"
0!
0-
00
01
1%
1C
09
13
#170000
1!
10
11
0%
1D
0B
0C
08
14
#180000
1"
0!
1-
00
01
1%
1E
03
1.
04
#190000
1!
10
11
0%
0D
1,
1F
0E
18
1/
1$
0.
19
#200000
0!
00
01
1%
#210000
1!
10
11
0%
1:
0,
0F
08
0/
0$
09
#220000
0"
0!
0-
00
01
1%
1;
13
#230000
1!
10
11
0%
1<
0:
0;
14
#240000
1"
0!
1-
00
01
1%
1=
03
04
#250000
1!
10
11
0%
1>
0<
18
0=
19
#260000
0"
0!
0-
00
01
1%
1?
09
13
#270000
1!
10
11
0%
1@
0>
0?
08
14
#280000
1"
0!
1-
00
01
1%
1A
03
04
#290000
1!
10
11
0%
1B
0@
18
0A
19
#300000
0"
0!
0-
00
01
1%
1C
09
13
#310000
1!
10
11
0%
1D
0B
0C
08
14
#320000
1"
0!
1-
00
01
1%
1E
03
1.
04
#330000
1!
10
11
0%
0D
1,
1F
0E
18
1/
1$
0.
19
#340000
0"
0!
0-
00
01
1%
09
13
14
#350000
1!
10
11
0%
15
0,
0F
08
0/
0$
#360000
0!
00
01
1%
#370000
1!
10
11
0%
#380000
0!
00
01
1%
#390000
1!
10
11
0%
#400000
0!
00
01
1%
#410000
1!
10
11
0%
#420000
0!
00
01
1%
#430000
1!
10
11
0%
#440000
0!
00
01
1%
#450000
1!
10
11
0%
#460000
0!
00
01
1%
#470000
1!
10
11
0%
#480000
0!
00
01
1%
#490000
1!
10
11
0%
#500000
0!
00
01
1%
#510000
1!
10
11
0%
#520000
0!
00
01
1%
#530000
1!
10
11
0%
#540000
0!
00
01
1%
#550000
1!
10
11
0%
#560000
0!
00
01
1%
#570000
1!
10
11
0%
#580000
0!
00
01
1%
#590000
1!
10
11
0%
#600000
0!
00
01
1%
#610000
1!
10
11
0%
#620000
0!
00
01
1%
#630000
1!
10
11
0%
#640000
0!
00
01
1%
#650000
1!
10
11
0%
#660000
0!
00
01
1%
#670000
1!
10
11
0%
#680000
0!
00
01
1%
#690000
1!
10
11
0%
#700000
0!
00
01
1%
#710000
1!
10
11
0%
#720000
0!
00
01
1%
#730000
1!
10
11
0%
#740000
0!
00
01
1%
#750000
1!
10
11
0%
#760000
0!
00
01
1%
#770000
1!
10
11
0%
#780000
0!
00
01
1%
#790000
1!
10
11
0%
#800000
0!
00
01
1%
#810000
1!
10
11
0%
#820000
0!
00
01
1%
#830000
1!
10
11
0%
#840000
0!
00
01
1%
#850000
1!
10
11
0%
#860000
0!
00
01
1%
#870000
1!
10
11
0%
#880000
0!
00
01
1%
#890000
1!
10
11
0%
#900000
0!
00
01
1%
#910000
1!
10
11
0%
#920000
0!
00
01
1%
#930000
1!
10
11
0%
#940000
0!
00
01
1%
#950000
1!
10
11
0%
#960000
0!
00
01
1%
#970000
1!
10
11
0%
#980000
0!
00
01
1%
#990000
1!
10
11
0%
